<?xml version="1.0" encoding="UTF-8" standalone="no"?>
<!-- Generator: Adobe Illustrator 15.0.2, SVG Export Plug-In . SVG Version: 6.00 Build 0)  -->

<svg
   version="1.1"
   x="0px"
   y="0px"
   width="595.28px"
   height="841.89px"
   viewBox="0 0 595.28 841.89"
   enable-background="new 0 0 595.28 841.89"
   xml:space="preserve"
   id="svg205250"
   sodipodi:docname="head_f_tutorial.svg"
   inkscape:version="1.2.2 (b0a8486541, 2022-12-01)"
   xmlns:inkscape="http://www.inkscape.org/namespaces/inkscape"
   xmlns:sodipodi="http://sodipodi.sourceforge.net/DTD/sodipodi-0.dtd"
   xmlns:xlink="http://www.w3.org/1999/xlink"
   xmlns="http://www.w3.org/2000/svg"
   xmlns:svg="http://www.w3.org/2000/svg"><defs
   id="defs205254"><marker
     style="overflow:visible"
     id="Arrow3"
     refX="0"
     refY="0"
     orient="auto-start-reverse"
     inkscape:stockid="Arrow3"
     markerWidth="2.207"
     markerHeight="3.6721199"
     viewBox="0 0 4.2071068 7"
     inkscape:isstock="true"
     inkscape:collect="always"
     preserveAspectRatio="xMidYMid"><path
       style="fill:none;stroke:context-stroke;stroke-width:1;stroke-linecap:round"
       d="M 3,-3 0,0 3,3"
       id="arrow3"
       transform="rotate(180,0.125,0)"
       sodipodi:nodetypes="ccc" /></marker></defs><sodipodi:namedview
   id="namedview205252"
   pagecolor="#505050"
   bordercolor="#ffffff"
   borderopacity="1"
   inkscape:showpageshadow="0"
   inkscape:pageopacity="0"
   inkscape:pagecheckerboard="1"
   inkscape:deskcolor="#505050"
   showgrid="false"
   inkscape:zoom="2.1309196"
   inkscape:cx="297.05485"
   inkscape:cy="412.49797"
   inkscape:window-width="1920"
   inkscape:window-height="1031"
   inkscape:window-x="0"
   inkscape:window-y="49"
   inkscape:window-maximized="1"
   inkscape:current-layer="svg205250" />


<rect
   style="fill:#ffffff;stroke:none;stroke-width:2.21962;stroke-miterlimit:0;stroke-opacity:1"
   id="rect205373"
   width="799.52258"
   height="783.95569"
   x="-704.68134"
   y="17.826763"
   transform="scale(-1,1)"
   inkscape:export-filename="head_f_dim.png"
   inkscape:export-xdpi="100"
   inkscape:export-ydpi="100" /><text
   xml:space="preserve"
   style="font-size:10.8751px;line-height:1.25;font-family:sans-serif;text-align:center;text-anchor:middle;stroke-width:1.01954"
   x="382.52325"
   y="324.33582"
   id="text206468"
   transform="scale(1.0050088,0.99501616)"><tspan
     sodipodi:role="line"
     id="tspan206466"
     x="382.52325"
     y="324.33582"
     style="font-size:10.8751px;stroke-width:1.01954">head</tspan><tspan
     sodipodi:role="line"
     x="382.52325"
     y="337.92969"
     id="tspan206470"
     style="font-size:10.8751px;stroke-width:1.01954">circumference</tspan></text><path
   style="fill:none;stroke:#000000;stroke-width:1.17899px;stroke-linecap:butt;stroke-linejoin:miter;stroke-opacity:1;marker-end:url(#Arrow3)"
   d="m 384.977,338.7655 22.736,48.6479"
   id="path206614" /><text
   xml:space="preserve"
   style="font-size:10.8751px;line-height:1.25;font-family:sans-serif;text-align:center;text-anchor:middle;stroke-width:1.01954"
   x="80.831429"
   y="395.43298"
   id="text206941"
   transform="scale(1.0050088,0.99501616)"><tspan
     sodipodi:role="line"
     x="80.831429"
     y="395.43298"
     id="tspan206939"
     style="font-size:10.8751px;stroke-width:1.01954">T7</tspan></text><text
   xml:space="preserve"
   style="font-size:10.8751px;line-height:1.25;font-family:sans-serif;text-align:center;text-anchor:middle;stroke-width:1.01954"
   x="575.17609"
   y="395.43298"
   id="text207108"
   transform="scale(1.0050088,0.99501616)"><tspan
     sodipodi:role="line"
     x="575.17609"
     y="395.43298"
     id="tspan207106"
     style="font-size:10.8751px;stroke-width:1.01954">T8</tspan></text><text
   xml:space="preserve"
   style="font-size:13.5938px;line-height:1.25;font-family:sans-serif;text-align:center;text-anchor:middle;stroke-width:1.01954"
   x="575.68701"
   y="430.24805"
   id="text207209"
   transform="scale(1.0050088,0.99501616)"><tspan
     sodipodi:role="line"
     x="575.68701"
     y="430.24805"
     id="tspan207217"
     style="font-size:13.5938px;stroke-width:1.01954">RPA</tspan></text><image
   width="769.21027"
   height="745.83228"
   preserveAspectRatio="none"
   xlink:href="data:image/png;base64,iVBORw0KGgoAAAANSUhEUgAAA/wAAAPdCAYAAAA3UWNoAAAABHNCSVQICAgIfAhkiAAAIABJREFU eJzs3XucZHlZ5/nPk5H3rMrqqu6mG0QEbziILCojysUbiLx0VBBX0VVEbYbBxRF3V1TEGWfWC8PO gIiry8ziCqKr4wUU0UYUbMVBWKBbRQVFkGvT9+pL3fL27B+/kxK0lZkRlXXyqTn5eb9e+aqIjF/m 95cRJ87veeKciIrMZBIRcRXwk8DnAfOZ+ZBdxj4GeNW9vv2VmfmeicIkSZIkSdK+zE4xNoC3A28E /q89xi4CNwFfPfa9k9NNTZIkSZIkXaiJG/7M/BjwsxHxWRP+yDpwF7Cek55GIEmSJEmSLoqZHn/3 FwAfBW6NiJdExFwfIRFxRUTcExG5x9c7IuJoH3OQJEmSJOlSM80p/dO4HrhvZt4WEZ8MvA74PuCF PWT9j8DKBOM+D3h0RNzQwxxWaW95uLOH3z2Jo8CIurdNrAALwO1F+cvAEnBbUf4S7T64tSh/ATgG 3FyUPw8cp72Np8IccIL291ecTTQLXE57/DcL8kfAFbTtf6Mgfwa4kvb8Xy/IB7gKuANYK8q/D23/ f64o/0rgbuBsUf7lwBngdFH+Cdp9f6oo/zht27+nKP8Ybd93V1H+avdvZX5lDXaEtg7dUZR/2Guw RVodfEtRvjVY2wffAmwV5B/2GiyAKzPzL3Yb1EvDn5m3jV3+UES8GHgq/TT8Hx67/FrggzuMux54 fR9vL4iIM8BMZpbs7CPiNDCbmSU7++7MiYXMLGl4I2IFWM7Mkp19RCwDRzKzZGcfEUvAue5tNxX5 C7S37lTlz9N2sjdl5oEvNhExS1tkbs7MA19sImJEW2RvycwDX2wiYobWbNyamSUNf0QEcHtmljTc LZ6TmVnScEdEAndl5pmi/C3gVGaWNNwRsQGczcyShjsi1oG1zLy7KH8N2MzMkoY3Is4CZGbJQYeu BhsV10Dz47XvAecfARaLa7CV4hroTGaWNLwRscjhrsHmsAarrsH21NcR/nt7IP298jrewP9sZl7b U44kSZIkSf/dmLjh715BeB7t1MH5iHg+cGNmvry7/QPA0zPzTRHxv3W/+/3A59BO5//Kiz15SZIk SZJ0ftN+aN8GcCPwb7rL46dOvIjW4AP8Ce39LE/orj8iM9+8j3lKkiRJkqQpTPPf8m0BL9jl9peM XX4r8Nb9TU2SJEmSJF2oPv9bPkmSJEmSVMSGX5IkSZKkAbLhlyRJkiRpgGz4JUmSJEkaIBt+SZIk SZIGyIZfkiRJkqQBsuGXJEmSJGmAbPglSZIkSRogG35JkiRJkgbIhl+SJEmSpAGy4ZckSZIkaYBs +CVJkiRJGiAbfkmSJEmSBsiGX5IkSZKkAbLhlyRJkiRpgGz4JUmSJEkaIBt+SZIkSZIGyIZfkiRJ kqQBsuGXJEmSJGmAbPglSZIkSRogG35JkiRJkgbIhl+SJEmSpAGauOGPiC+LiFdGxPUR8W8m/JlP mma8JEmSJEm6OGanGLsCvBkI4H57DY6IAH4OODvJeEmSJEmSdPFM3PBn5u8ARMQDgCsm+JFvAW4G /hq47IJmJ0mSJEmSLsg0R/gnFhFXAc8DHgP8QB8ZY+bHLv9GRKzvMO7PgScDp3qYwwIwExELPfzu SfNni/PnzTe/KH+++1qIiK2C/Nmx/M2C/NFY/qggf2Ysv+pzYbbzi+L/MT+L8yu2/+38jYjYKMzP Xdb/g8iPiFgryl8ANovXAIrzR8X5c4d4DTb/cOfPYQ12KdRgu+ql4QdeCvxoZt5xAAXY/ccuL+8y 7ouBLwLe2cMcVmlvdaiqNo/SNrgqR+gKrqL8ZWAJqCp2l2hveanY0QAs0rbBymL3OFBV7M51+RvU bAOzXf4mNdvAqMvfot0HB22my0/qtsHj3b9V2+Bx2v1wrjB/lrYvqspf6L6q8s8xQdHTY/46bV9U 4TLa87+qDljt/q16wW+1MBtaDVT12EOrPxaorcGWqa2BjlKz/kG7749hDWYNVluDfWC3QRe94Y+I RwGPAt4QEdcA/wOwHBFfl5m/dbHzgPePXX4T8NEdxl0P/F5mXvSNMSJOAzOZecfF/t0T5p8CZjPz 9qL8o8BCZt5alL8CLGfmLUX5y8CRzLy5KH8JOJOZHyvKXwDWMvPGovx52kJ7Ux/P7wnyZ2k7+Zsz 88AXm+4V5U3glsw88MWmO6q/BdyamSUFT/fC8u2ZWdJwd0f2T2bm2aL8LeCuzDxTlL8JnMrMPs6g myR/HTibmfcU5a/R9oF3F+WfAzYz886i/DMAmXmyKP80MCqugeYz87ai/CPAYnENtlJcA53OzJuK 8hdp+5/DWoPNYQ12KdRgu+rjCP+dwK8Dn91dv5L26ten9pAFn/iK5gsz89qeciRJkiRJ+u/GxA1/ RDwY+ArgnwMrEfFs4M2ZeUNEPBb46cz83Mz8K+A5Yz/3AuCyzHzxRZ67JEmSJEnawTRH+Jdp75e/ vrt+f9r7lgA+BvzGDj93He39NZIkSZIk6YBM89/yXc/Hm/173/Z3wI/tcNvvXdjUJEmSJEnShar8 VFNJkiRJktQTG35JkiRJkgbIhl+SJEmSpAGy4ZckSZIkaYBs+CVJkiRJGiAbfkmSJEmSBsiGX5Ik SZKkAbLhlyRJkiRpgGz4JUmSJEkaIBt+SZIkSZIGyIZfkiRJkqQBsuGXJEmSJGmAbPglSZIkSRog G35JkiRJkgbIhl+SJEmSpAGy4ZckSZIkaYBs+CVJkiRJGiAbfkmSJEmSBsiGX5IkSZKkAbLhlyRJ kiRpgGz4JUmSJEkaIBt+SZIkSZIGaOKGPyLuFxE/GRG/HxGv3mPsEyPiTyPiIxHxNxHx7yNitP/p SpIkSZKkSUxzhP8YsAb8KfC5e4z9MPA/Aw8F/iXwDcAzLmSCkiRJkiRpehM3/Jn5N5n5b4HrJhj7 rsy8ITPvyMw/Af4AuHIf85QkSZIkSVOY7esXR8TVwONoZwM8DPj2nqLG/4ZXRcS5HcbdAHwLcKaH OcwDMxEx38PvnjR/tjh//pDnz5lfm0/bBrYK8mfH8jcL8kdj+RWfyzIzlh8F+YzlZ3F+xfY3nl+x /Y3nrxflzwNbxfsgivM3D/nfPzrkNUh1fnkNYH5Z/hzWYJdCDbar3hp+4DLgUcADgNuAvgqxTxm7 fPku4+4HPBZ4Rw9zWAWCug9BPErb4KqK7SO0HU5Vsb0MLAFVxfYSsFKYv0jbBjeK8ueB40BVsT8H nAA2qXkMZrv8rW4OB23U5Sc128BMlw9128AJ2v5vrTB/BOz0gvNB5M8BZwvzF7uvCsdp9/1CYf46 XeNb4DLa/qfPmm43q92/VZ/VtErbD1XWQHsW3D1aoW37lTXYMrU10FFq1l9o9/0xrMGswWprsA/u Nqi3xSEz3017Hz8R8b8DPwV8fQ9R7xu7/GfATTuMuwG4ln42hjO0O/yOHn73JE7THsvbi/KP0nZ4 txblr9AWm1uK8pdpC/7NRflLtEL/Y0X5C7SFpip/nraTvYm6xWaT9vhXLTZbtO2/arFJ2vO/quAI 2v6vquEGOEldw53AXfRzBtsktoBT3VeFDdp9f09R/jrtxaa7i/LXaPueO4vyt7f7k0X5Z2j7wcoa aJ52cKvCEVrTW1mDrVBbA51h5/q/b4u0teew1mBzWINdCjXYrg7q1eAPAY/o6XeP/5H/LjOv7Sln R91ppJmZJa+umm+++ZTNwfza/PE5mG+++WX5HPK/33zzD3V+1RzM/8f8XU3c8EfEEvBNwGcBRyLi 6cBHMvMN3e3vBp6cmX8TEc+hvdJ0I+2U+x8BnjftHyFJkiRJki7MNEf45/j4Ufpf6S6vAG/ovvcH fPx0tr+n/Vd8V9JOsXhGxZF3SZIkSZIOq4kb/sy8C3j2Lrc/e+zya4HX7m9qkiRJkiTpQlV9qrwk SZIkSeqRDb8kSZIkSQNkwy9JkiRJ0gDZ8EuSJEmSNEA2/JIkSZIkDZANvyRJkiRJA2TDL0mSJEnS ANnwS5IkSZI0QDb8kiRJkiQNkA2/JEmSJEkDZMMvSZIkSdIA2fBLkiRJkjRANvySJEmSJA2QDb8k SZIkSQNkwy9JkiRJ0gDZ8EuSJEmSNEA2/JIkSZIkDZANvyRJkiRJA2TDL0mSJEnSANnwS5IkSZI0 QDb8kiRJkiQNkA2/JEmSJEkDNHHDHxGjiHh2RPxCRFwbEVfuMvZhEfGKiPjLiHhbRPxgRMxenClL kiRJkqS9TNOEj4CHA28HXgos7DL2wcBbgJ8AFoFfBLaAF17YNCVJkiRJ0jQmbvgzcw24pjtS/9I9 xv7a+PWI+HngcdjwS5IkSZJ0IHo/zT4iAngC7Yh/H0Zjl18WEffsMO4G4JnAuR7mMAfMRMRcD797 0vzZ4vw5882vzO/msFWQPzuWX/G5KKOx/CjInxnLL4gHah//8fzN4vyN4vzKfcBmcX4W51fXIBTn j6rXIPPNP8z5WINV1mB79vMH8b76fw18CvANPf3+B45dfsAu4x4C/ArtLQkX2yoQfOKLDwfpaJdd 9SGMR4D5omyAZWAJyKL8JWCF9raVCou0bbCq2J8HjgPrRflzwAlgk5rHYLbL3+rmcNBGXX5Ssw3M dPlQtw2coO2D1wrzR/TzgvKk+XPA2cL8Rdq+sCr/XDeHCtv7v93e6tiny2j7n6qCf7X7t+qzmlZp +6HKGmiOtg+qsELdtgetBlumtgY6Ss36C+2+P4Y1mDVYXQ12OfCh3Qb1unOOiGuA7wG+JDNP9xTz vrHLfwncvsO4dwKvp58H4yztDr+jh989iTO0x3Knv71vp2k7vFuL8ldoi80tRfnLtAX/5qL8JVqx e1NR/gLteVWVP0/byd9E3WKzRXv8qxabpG3/VYsNtOd/VcExQ9v/VTXcAZykruEGuIu2FlRI4FT3 VWGTdt/vdIZf3zZoLzbdXZS/TrsP7izK337enSzKP0vbD1bWQPPAbUX5R2hNb2UNtkJtDXSWuhpk kfb8P6w12BzWYJdCDbar3hr+iPh24IeBL83Mj/SVwyce1X1uZl7bY9Z5bZ/Ckpklr252+Vvmm3+Y 86vmcAnkR3E+lfndHMw33/za/OoaKA75/W+++dZgh7sG29VUpz9FxFcAX9ddfWJEfM3YbS+PiKd0 l78G+C/AzwCfGxFPiogvmSZLkiRJkiRduGmP8H8FcB/gFcBjaKdxvba77X18/HSqeeCXgc/pvgD+ HrhuP5OVJEmSJEmTmarhz8zn7nLbj49d/g3gN/YxL0mSJEmStA9Vn2gqSZIkSZJ6ZMMvSZIkSdIA 2fBLkiRJkjRANvySJEmSJA2QDb8kSZIkSQNkwy9JkiRJ0gDZ8EuSJEmSNEA2/JIkSZIkDZANvyRJ kiRJA2TDL0mSJEnSANnwS5IkSZI0QDb8kiRJkiQNkA2/JEmSJEkDZMMvSZIkSdIA2fBLkiRJkjRA NvySJEmSJA2QDb8kSZIkSQNkwy9JkiRJ0gDZ8EuSJEmSNEA2/JIkSZIkDZANvyRJkiRJA2TDL0mS JEnSAM1OOjAiFoFvAx4BXA58U2Zu7jB2FfgW4POBhcx82kWYqyRJkiRJmtA0R/hXgS8BbgaeAsQu Y+8DfCFwB/C1Fzw7SZIkSZJ0QSZu+DPz5sz8VuBlE4x9b2Y+HXjlPuYmSZIkSZIu0MSn9F/Cxl+0 +KmIuHOHcTcAzwHWe5jDLDATEVX35ywwa775hzm/m8NWcf5uZz71ZTSWXxDPzFh+VkxgLP+8bzM7 wPxD/Rw85PlbxflRnE9x/uiQb3/mm28NdnhrsNFeg4bQ8D9o7PKDdxn3BcDvAG/vYQ6rtLc4VN2f R2kP9p4PeE+OAPPs/jaPPi0DS0XZdNkrQFWzs0jbBquanXngOLBRlD8HnAC2uq+DNkv7XJOk5jEY dflQ8xjMdPlBPy+oTuLybh5rhfmzwLnC/HngbGH+Em1fXOEE7b6vWgeO07b9xaL8y2j7vvmi/NXu 37nC/ImK3p4cof3tVR+EvQIsUFuDLVNbAx2lZv2Hdt8fwxrMGqyuBrsC+PBug4bQ8L9/7PJ7gbt2 GHcD8Af0U5Cu0e7wO3r43ZM4R3ssby/KP0vb4d1alL9CW2xuKcpfpt0HVflLtO26Kn+BtpOvyp+n 7ehvoW6xocuvWmyiy69abGZoz/+qhn97/1fVcI+Ak9Q13DO0te9MUX4Ap7qvCkm77+8pyt+i1QF3 F+Vvdl87neHYt+3n/cmi/DXac7CyBpoHbivKP0NreitrsBVqa6C1wvxF2tp7WGuwOazBqmuwPV/s G0LDP75xfU9mXnvQE4iIDWAmM0teXevyKc4fFedvmF+WPyrOn6HtZDcy88AXm+4Uru38A19sutPo y7aBe93/h/U5YL751fmbh7wGyeL86hqwevsz//DWYIE1WHUNtuffPdXpRxHxZcBju6uPi4hHj932 yoj44u3wiHg88EXAXEQ8PiK+YJosSZIkSZJ04aY9wv9M2qkrvwU8C/gY8Kfdbaf5+KkMATy7u/yG 7vLfAm/bz2QlSZIkSdJkpmr4M/Opu9z2r8YubwJP2se8JEmSJEnSPlR9oqgkSZIkSeqRDb8kSZIk SQNkwy9JkiRJ0gDZ8EuSJEmSNEA2/JIkSZIkDZANvyRJkiRJA2TDL0mSJEnSANnwS5IkSZI0QDb8 kiRJkiQNkA2/JEmSJEkDZMMvSZIkSdIA2fBLkiRJkjRANvySJEmSJA2QDb8kSZIkSQNkwy9JkiRJ 0gDZ8EuSJEmSNEA2/JIkSZIkDZANvyRJkiRJA2TDL0mSJEnSANnwS5IkSZI0QDb8kiRJkiQNkA2/ JEmSJEkDNDvpwIi4H/BVwMOBv8/MF+8x/uuApwGngJdk5jv2M1FJkiRJkjS5aY7wPxL4YuCTga/c bWBEPBH4P4H/BLwaeH1EfMqFTlKSJEmSJE1n4oY/M1+dmU8Dfm+C4c8G/o/M/G+Z+Wrgd4BrLnCO kiRJkiRpShOf0j+lzwFeMHb9HcCX9ZQVY5d/MiK+f4dx7wB+GNjsYQ4zwExEVH0mgvnmH/r8bg7V +VmcX/EYVOf/4xzMN/8Q52dxPof8/jff/EOdjzVYdQ22q74a/iuBO8eunwSu6CnrU8cuP3yXcV8O /DGt8b/YVmkvPMz38LsncRQYAXNF+Udof/uoKH8ZWKLuQyiXgBU+8cWng7RI2wYrdnTQHvvjwFZR /hxwortcMYdZ4HLa49/HC4p7GdH2rzPARkH+DG2fPwLWC/Lp8meBtcL8eeBcYf4icLYo/wraPvB0 Uf4J2n2/UpR/nLbtLxflX0bb9y0W5a92/y4U5s9QWwPN0V9NvZcV2n1fWYMtU1sDHS3KhnbfH8Ma jKI5WIO1GuAjuw3qa+d0B20HuO0orenvwwfGLn+E9iGB53MD8Ef0U5Ct0+7wO3r43ZNYoz2Wtxfl n6Pt8G4tyl+hLTZV+cu0+6Aqf4m2k6nKX6AtdFX52y+03UrdYhNdftViM9PlVy02oy6/quGfo+3/ qhruWdoaV9Vwj4C7gDNF+TO0tXen9fcgnAXuKcpO2jp8d1H+Fm3fc+deA3uyvd/pq87byzrtOVBZ A80DtxXln6U1vZU12NnC/CXaNlCVv0h7/h3WGmz7hTZrsNoabFd9Nfx/CzwUeEt3/aHAe3vKGr9z r8nMa3vK2VFErAMzmVlS7Hb5WZxf/fevH+L82eL8meL8oC3265l54ItNdwrZdv6BLzYRsTWWf+CL zfbjz+F+DppvfnX+ZnE+xflbxflRnD86xNt/dQ00Ks6vrsHAGuxSqMF2NfEp0BGxGhFfSDuF/rKI +MKIeGB32/0j4jURsX2k7eXA/xIRV0XEw4BvBH5+yr9BkiRJkiRdoGmO8D8I+LHu8j3d5d8Efpb2 wsH4Kfy/BNwHeD3tFL/vzMx37Xu2kiRJkiRpIhM3/Jn558Djd7jtg+O3ZWYCL+q+JEmSJEnSAav6 VHNJkiRJktQjG35JkiRJkgbIhl+SJEmSpAGy4ZckSZIkaYBs+CVJkiRJGiAbfkmSJEmSBsiGX5Ik SZKkAbLhlyRJkiRpgGz4JUmSJEkaIBt+SZIkSZIGyIZfkiRJkqQBsuGXJEmSJGmAbPglSZIkSRog G35JkiRJkgbIhl+SJEmSpAGy4ZckSZIkaYBs+CVJkiRJGiAbfkmSJEmSBsiGX5IkSZKkAbLhlyRJ kiRpgGz4JUmSJEkaIBt+SZIkSZIGaHaawRHxz4F/CQTw8sx8yw7jZoCnA18J3AT8TGb+7f6mKkmS JEmSJjXxEf6I+Czgd4HfB14H/HZEPGyH4c8Hngm8FHgb8AcRcZ99zlWSJEmSJE1omlP6vxv45cz8 tcx8NfDzwLN3GPsdwHMz882Z+SrgTcB37W+qkiRJkiRpUtOc0v95wM+OXX8r8EM7jF0B7hm7flf3 832IscvPj4hrdhh3A/CTwFZPc4iIiD1H9sN88w99fuEczL9EtgHzzTe/LJ9D/vebb/6hzi+cg/mf 2Auf1zQN/32AO8aun+y+dz5vAp4VEf8KuBr4euC9U2RN40Fjlx+9y7in0Jr+d/Qwh1Xanb3Qw++e xFFgBMwX5R/psqf6TIiLaBlYot0HFZZoL3JVfQjmIm0brDIPHAeyKH8OOEF7Dvbxgt5eZoHLaY// ZkH+CLii+3ejIH8GuJJ2P6wX5ENbi+aAtcL8BeBcUf6VtP3Q2aL8K4DT3VeFE7T7/khR/nHatr9S lH8Zbd+3VJS/vf4sFubPUFsDzXVfFVZo+5/KGmyZ2hroKBM0PT1ZAI4VZYM1mDVYqwE+utugaXYO J/nExWyl+975fA/w08C7uwm8jrYg9eFDY5dPsnPBdwPwZuBMD3PYpN3hd+w1sCcbtMfy9qL8ddoO pyr/HK3Qrcpfpm13VflLtG2wKn/7ha6q/HnaQnM7dYvNTJdftdiMuvyqxWZ7/1PV8M/T9r9VDfcc cCd1DfcscDf9rG+TGNGa/VNF+UF77O/Za2CP1mmPQZVN2jZYYXu/u1NN2LdNPr4PrLBO2wdU5a/R 1uHKGuxcYf4Sbe2ryl+kPQcOaw02hzVYdQ225wHPaRr+9wIPGbv+EHY4ap+ZNwNP3b4eEf8VeOcU WdMYLzC/OTOv7SlnRxFxDpjJzJJis8vfLMyfByjMnwVGhfkjYK4wfwZYK8ynOD9pBc+5zDzwxSYi NsfyD3yx6ba/7fwDX2y2t78uv6Thj4jt/Kpt0HzzK/eB1TXAOSitAc5RWwPMA1mYPwdEcQ02W1wD LRTmB4e7BtvCGqy6Btuz9prm9JuXA9dExP0i4irap/D/fBd2IiJ+ISKWu+ufGRH3j4jViHgG8Fjg 56b+KyRJkiRJ0gWZ+Ah/Zv5hRPw4cC3thYIXZebrupvngIfy8VMKHgy8hHaq81uBR2dm1almkiRJ kiQdOlN9wEdmvgx42Xm+fxPwiLHrrwVeu+/ZSZIkSZKkC1L1iZqSJEmSJKlHNvySJEmSJA2QDb8k SZIkSQNkwy9JkiRJ0gDZ8EuSJEmSNEA2/JIkSZIkDZANvyRJkiRJA2TDL0mSJEnSANnwS5IkSZI0 QDb8kiRJkiQNkA2/JEmSJEkDZMMvSZIkSdIA2fBLkiRJkjRANvySJEmSJA2QDb8kSZIkSQNkwy9J kiRJ0gDZ8EuSJEmSNEA2/JIkSZIkDZANvyRJkiRJA2TDL0mSJEnSANnwS5IkSZI0QDb8kiRJkiQN 0Ow0gyPiYcDTgARekZnv2mHcDPBU4MuAdeDVmfmGfc5VkiRJkiRNaOIj/BHxz4A/BN4F/BXwxoj4 zB2G/2vgx4E3d+N/MSK+ep9zlSRJkiRJE5rmCP93A7+cmb8AEBGfBzwL+L7zjP0S4P/OzFd0Yz8d eAzwun3NVpIkSZIkTWSahv/zgZeMXf9T2osA5/Ma4JkR8evAEeCLgedc0Az3FmOX/9eIeOoO464H fjozs6d5SJIkSZJ0yZim4b8KuGPs+h3A1TuM/WXg8cBbgDngRbQXCPrwoLHLj99l3LcDfxcR7+xh DqtARMRCD797EkeBUUTMF+UfAeYjYqrPhLiIloGliBgV5S8BK91nV1RYBFYjYs+BPZkHjkdE1Ytp c8AJ2nNwqyB/FrgcmImIzYL8EXAFbR+wUZA/A1wJzEbEekE+wH2AuYhYK8xfiIhzRflX0vaBZ4vy rwBOR8TpovwTwLmIOFKUfxxYj4iVovzLgK2IWCrKXwWIiMXC/JniGmguIuaK8ldo+5/KGmy5uAY6 GnVF0AJwzBrMGqy4Brtxt0HT7BzuojU225aBO3cY+1+B99HugDngV4CfAH5oirxJfXjs8llgpwf7 z4G3Aff0MIeknWlwsoffPYkt2gZXlb9J2+FU5a8Da4X5a8BGYf4SbRusyl+g7XCq8uf5+PZftdjM dvlVi81cl1+12Gw//6sa/kXaelTVcC90+VUN9zxwN3CmKH8OOA2cKsof0R77Ptb3SczQtv27i/KD tu/bqSY7KFVrQFK7Bm3y8X1whQ3aPqiyBlsvzF+ibf9V+dsvdB3WGmwOa7DqGmzPFxunafjfBzx4 7PqDgffvMPZRwH/IzC3aq+6/CTxjiqxpjB/ReXJmXttTzo66I/szmVlS7HWvas8W5s8BWZg/ovb+ n6H2/g9goTA/gXOF+Vu0Yv9st8856PzZsfwDX2y67X87/8AXm277384vafi7I+tnM7Ok4R/Lr3oO mF+fv1acv1mYfxagMH8BGBXXQFuF+bNQev+PqL3/A5gvzAdYPMQ12CbWYNU12J5nN05z+s2rgGdE xImIOEFr4F/VhV0ZET8zdkr7O4FviohR972n0N5DL0mSJEmSDsA0R/hfA3w28Gfd9ZcDv9NdXqa9 f377VZbvBn6OdgZA0t6//28vwnwlSZIkSdIEJm74u0+3/7Hu6963fQD4rLHr7weeeDEmKEmSJEmS plf1iZqSJEmSJKlHNvySJEmSJA2QDb8kSZIkSQNkwy9JkiRJ0gDZ8EsnZyc4AAAgAElEQVSSJEmS NEA2/JIkSZIkDZANvyRJkiRJA2TDL0mSJEnSANnwS5IkSZI0QDb8kiRJkiQNkA2/JEmSJEkDZMMv SZIkSdIA2fBLkiRJkjRANvySJEmSJA2QDb8kSZIkSQNkwy9JkiRJ0gDZ8EuSJEmSNEA2/JIkSZIk DZANvyRJkiRJA2TDL0mSJEnSANnwS5IkSZI0QDb8kiRJkiQN0Ow0gyPicuA7gcuB12Tmn+0w7vHA w+/17Rsz85cuaJaSJEmSJGkqEx/hj4hF4I+BK4G/BH4zIr58h+HzwJGxr+8CvmR/U5UkSZIkSZOa 5gj/NwB3AT+QmRkRK8DzgDfee2Bm/i7wuwARsQR8L/Dy/U9XkiRJkiRNYpqG/4uA6zIzu+tvAl4U ETH2vfN5MvAR4G0XOMdpPDMinrjDbdcDr9xjrpIkSZIkDcI0Df/VwAfGrt8GrNBO2b97l5/7TuDl PTbaDxy7/KQ9xn4sIm7oYQ6rQETEfA+/exJHgVFEzBXlHwHmI2JUlL8MLEVE1YdQLgErERFF+YvA akRUvZg1DxyPiK2i/DngBEDRHGZpn2sSEbFZkD8CrgBmImKjIH+G9lavUUSsF+TT5c9GxFph/nxE nCvMX4yIs0X5V9D2gaeL8k8A57ozDyscB9YjYrko/zJgq3vrZYVjABGxUJS/Stv/VdZAcxEx1edi XUQrwEJxDbZcXAMdrYtnAThmDWYNVlyD3bjboGl2TvfQnlTbloAt4MxOPxARDwIeA3zzFDnT+tiE 4/4auIH2toQ+zPT4uycxKsxP2g6nKn8T2CjM36A9F6ry14EozF+g7Uuq8udpC85dtMfhoM3y8e2/ arFZ6PKrFpvFLr+q4V+mvfBc1XAvdflVDfdil7/jetyzBeA0cKoof4722N9TlD9L2/Z3O/jRpxFt 31O1D97utA5zDbS9BlXYAtYK8zep3f62152q/EVqe4DqGmwOa7BLoQbb1TQN/z8Anz52/TOAD2Xm bn/c04HfycxbpsiZ1niB9S+A1+8wbrOvswy6I/szmVlSbHWvas8W5s8CW4X5M0AU5gcwKswHmC/M 3wKWCvM3afuBM5l54ItNt/1v5x/4YtMd1dnOP/DFpnv+beeXNPzdke0zmVnS8I/llzT8Y/lVz8FL If9scf5aYf4Srcapyl8AKMyfp3YNnqX2/h8BWVyDVdbAAHOF+QksHOIabANrsEuhBtvVNKdA/xLw NRHxoO6Xfy/wqrHA53dH9Levj4Dv4GA/rG8zMzd2+PK9+5IkSZKkQ2Pihj8z/xZ4DvAG4G9ppw7+ +NiQb6G9z3/bI2nv8//9/U9TkiRJkiRNY6oPGMnMV0TEK2mnj6/f67aH3Ov6fwM+d/9TlCRJkiRJ 05r6E0W7U+OrPphJkiRJkiRNoOq/MZMkSZIkST2y4ZckSZIkaYBs+CVJkiRJGiAbfkmSJEmSBsiG X5IkSZKkAbLhlyRJkiRpgGz4JUmSJEkaIBt+SZIkSZIGyIZfkiRJkqQBsuGXJEmSJGmAbPglSZIk SRogG35JkiRJkgbIhl+SJEmSpAGy4ZckSZIkaYBs+CVJkiRJGiAbfkmSJEmSBsiGX5IkSZKkAbLh lyRJkiRpgGz4JUmSJEkaIBt+SZIkSZIGyIZfkiRJkqQBmp1mcER8GvAk4Bzwa5l50y5jF4AnAw8D Pgr8UmbesY+5SpIkSZKkCU18hD8i/hnwp0AAVwNviYgrdhh7FPgj4JuBm4FPBR64z7lKkiRJkqQJ TXOE/znAqzLzPwJExGcB3wX8h/OM/T7gg8BTMzP3PUtJkiRJkjSVaRr+RwPPHbv+JuAJO4x9CvAf ge+NiFXgtzPzhgub4lS+PSIes8Nt1wO/6QsQkiRJkqTDYJqG/2rg1rHrtwJX7TD2QcDzgZcCtwNv iIhvyMzrLmiWu3vA2OWn7jH2KyLiL3qYwyowExFzPfzuSRwFRhEx1WcyXERHgPmIqPoQyGVgKSKi KH8JWKmLZxFYjYitovx54HhEbBblzwEngCy6D2aBywGK7oMRcEWLj42C/JkufyYi1gvy6fJHEbFW mD8XEecK8xci4mxh/nJErBTlnwDORcRyUf5xYD0iloryLwO2us9OqnAMICLmi/K3a7DKGmguIkZF +Su0539lDbZcXAMdjYiqA3oLwDFrMGuwwhrscuDG3QZNs3M8Tduoty0AZ3YZ+8rM/Bn4x/f0Pxvo o+G/de8hALwfeDdwqoc5jGh3eB+/exIztMeyKj+AjcJ8gCzMT9p9UJW/Re3jv0HbH1Tlz9MW/FO0 ++KgzdJe9DkFVC02y11+1WKz0uVXNfynu6+qhns7v6rhXunyd1qT+7bc5VftAxZp931V/gKwVpg/ T9v3VOVv15JV+aPuq7IGmi/Mh9rHf1tlDVT5+G/Smt7DWoPNYQ1WXYPt+WL3NA3/B4BPA/6ku/6p wId2GPt+2ifzb/so8LgpsqZxeuzyNwB/uMO4uzKzlw2xe1V5JjNLnmzdq8qzhfkzwGZhPkAW5icQ hflb1D7+G8BCYf463WLT13N8j/xZup19Zh74YtM9/1e6/ANfbLrn/+kuv6Thj4jt/JKGfyy/pOEf yy9p+Lsj+6cK9wFLwNnC/EVgrTB/gdo1eA6gMH8WGBXXQBuF+QFsFddglY//FrWP/yYwd4hrsDm6 htsarKwGO7LXuGlO//lV4JqImOvel/8/Af9vF3ZVRPzA2NhfBp4UETPdRJ4MvGWKrAt1KjNP7vBV daqNJEmSJEkHbpqG/z/Tjtz/NXAD8OvAtd1tVwHPGxv7Mtp7998N/B3tFI/zfZq/JEmSJEnqwcSn 9GfmGvBt3alzm9317dv+gu5DW8bGfkd3mttMZp7+J79QkiRJkiT1ZupPNJ3mPYJV72eUJEmSJOmw q/ovPCRJkiRJUo9s+CVJkiRJGiAbfkmSJEmSBsiGX5IkSZKkAbLhlyRJkiRpgGz4JUmSJEkaIBt+ SZIkSZIGyIZfkiRJkqQBsuGXJEmSJGmAbPglSZIkSRogG35JkiRJkgbIhl+SJEmSpAGy4ZckSZIk aYBs+CVJkiRJGiAbfkmSJEmSBsiGX5IkSZKkAbLhlyRJkiRpgGz4JUmSJEkaIBt+SZIkSZIGyIZf kiRJkqQBsuGXJEmSJGmAZqcZHBFLwNcCVwGvz8z37DDuauBL7/XtazPz5IVMUpIkSZIkTWfiI/wR MQJeDzwZmAf+KCIevcPwhwIvAR4/9rWyv6lKkiRJkqRJTXOE/6uAK4Avy8zNiDgD/AjwxB3G/11m XrPfCUqSJEmSpOlN0/A/FnhjZm52138feGFERGbmecZfHRHPB24FXpOZH9vnXCfxlIh46A63XZ+Z f3gAc5AkSZIkqdw0Df99gfeOXb8ZWAZWgTvvNfZu4A+Bc8CjgJ+MiMdk5l/tY647uf/Y5V3PKIiI LwX6mMMqMNO97aHCUWA2Iqo+hPEIMB8RRfEsA0sRcb4Xng7CErASEVtF+YvAakRsFOXPA8cjYr0y H9gsegxmgRPAVkRs7jW4B6MuP4u2gZkun8Jt4ESLj7XC/FFEnCvMn4uIs4X5i93n/FTln4uIxcL8 tYhYKMrf3v/NFeUfA4iIqT4X6iJapT3/qmugqiJoBVgorsGWi2ugo0XrL8ACcOwQ12BztH2gNVht DXbjboOm2Tmfoz2o2+bHvv8JMvOtwFu3r0fEi4EfAJ42Rd6k7phw3E3AB4A+CqJ52h1eVWzN0R7L qvxZIAvzZ6i9/2eovf+D9jysys/i/K2x/KrFZju/arHZzq9abLbzqwqOc2NflflVz4FLIf/sIc4/ C6wV528W5m+/0FGVP0/bD1bWQFuF+dsHmyproMr7P2jbQFU+HO4abBNrsOoabM/HfpqG/0PAp49d fyBwS2ZOsoFdTz/NPsCpsctPB67bYdxHM7OXoz/dkf2ZzLynj98/Qf4MMFuYH8BGYX4CWZi/RZtA Vf4mMCrMXwfmC/PnaQXnPZl54ItNd1Rrqcs/8MWm2/8sd/kHvth0+5+VLr+k4Y+IU11+ScMfEUe6 /JKCKyK27/8zRfnLwKnMPLXn4H7yF4GzhfugBWCteB+4WZg/C6Vr4IjaNTCA9cJ8qH38E8proMoa fIPaGry6BpujnWVhDVZbg+1qmob/14HrIuKqzLwJ+I7ue9uB19D+q74PRcSDgA92H+63CjwD+JOp /oILc1Nm/sMB5EiSJEmSdEmbuOHPzL+KiBcCb42Im2inbXzd2JAXAP9AOxPgWcB3RcQHgU8B3gj8 xMWatCRJkiRJ2t1UH7CSmS+MiJcCl2Xmjfe67Yqxy8+NiJ8ArgRurDrNRJIkSZKkw2rqT1Tt3iO4 5/sEM/MkcPJCJiVJkiRJkvan6r8wkSRJkiRJPbLhlyRJkiRpgGz4JUmSJEkaIBt+SZIkSZIGyIZf kiRJkqQBsuGXJEmSJGmAbPglSZIkSRogG35JkiRJkgbIhl+SJEmSpAGy4ZckSZIkaYBs+CVJkiRJ GiAbfkmSJEmSBsiGX5IkSZKkAbLhlyRJkiRpgGz4JUmSJEkaIBt+SZIkSZIGyIZfkiRJkqQBsuGX JEmSJGmAbPglSZIkSRogG35JkiRJkgbIhl+SJEmSpAGanWZwRNwP+HLgLuANmXlmj/EBPAG4MTP/ 4oJnKUmSJEmSpjLxEf6IeAjwduChwLcCr4+I+T1+7JuB3wa++4JnKEmSJEmSpjbNKf0/CPw/mfmD wFOBZeDJOw2OiKuAHwB+fl8zlCRJkiRJU5vmlP7HAd8IkJlbEfF7wOOBX91h/EuBHwUeCVy2jzlO 46sj4oE73HZ9Zr71gOYhSZIkSVKpiRr+iBgBVwM3jX37JuDhO4z/emA2M18dEY/c9yx3d7+xy8/e bWBEPAZ4dw9zWAVmIqLqQxCPArPdZyZUOAIsREQW5S8DSxGxVZS/BKxExGZR/iKwGhHrRfnzwPGI WKvMBzaKtoHZLn+zaBsYdflbEbFRkD/T5WfhNngcoHAbPE5bA84V5s9GxNnC/IWIWCzKPwGcjYiF wvy1Cd7m2Jft/c9Un8t0ER2Df6wVK6wCo+IaaL4unhVgsbgGWy6ugY4WrX8AC8CxQ1yDzWENdinU YDfuNmjSxWEL2KD9UeM/+082rog4AfwE7cP9DsLdE467i/YiRR9PiDXaHV71ZFujPUaV+VGYP8sO 2+MBGdF2uJX564X5UZzPWH7FYrM1ll+12GznVy022/lVBc86tdug+S27cg067Pmbxfnj/1bkj4rz x/89aHPU1qCz3RwOaw00vgZWqK7BEmuwS6EG29VEDX9mZkR8GHgA8J7u2w8APnqe4Y8CPgl4Y/dq 531oRz6OZ+Y3TZI3pfGG/1nAm3cY9/7MPNVDPt2R/ZnMnPTFh4udH7QzKqryAdYL87eArcL8TYDC /A1qt781YK4wf572gsvdmXngi013VG2xyz/wxaY7qrbU5R/4YtPt/5a7/JKGPyKOdPklR9gjYqXL LznCHhHb9/+u/3NOj/lLwKm+1tgJ8heAs5l5T1H+PLBWuA+cAzYL80dQugbOAKPiGmi+MD+BjeIa LItroCjMX6d2+6uuweZoZzlYg9XWYLua5vSvVwNPA94QEUdpH9j3HV3YfYFHZ+avA38AfMbYzz2f drrV902RdaH+ITPfdQA5kiRJkiRd0qZ5z/kLgM+MiOuA/4/23+1d19322cDPAGTm2cz82PYXcA9w OjNvu4jzliRJkiRJu5j4CH9m3hoRXwg8CLgrM28du/k64ME7/Oi/o72/RJIkSZIkHZCpPtE1MxN4 33m+vw7cucPPlLynUJIkSZKkw6zqv5GTJEmSJEk9suGXJEmSJGmAbPglSZIkSRogG35JkiRJkgbI hl+SJEmSpAGy4ZckSZIkaYBs+CVJkiRJGiAbfkmSJEmSBsiGX5IkSZKkAbLhlyRJkiRpgGz4JUmS JEkaIBt+SZIkSZIGyIZfkiRJkqQBsuGXJEmSJGmAbPglSZIkSRogG35JkiRJkgbIhl+SJEmSpAGy 4ZckSZIkaYBs+CVJkiRJGiAbfkmSJEmSBsiGX5IkSZKkAZqdZnBEzAOPAlaBP87MkzuMWwY+H3gg cBfwxsy8e39TlSRJkiRJk5q44e+a/dcB54APAT8VEV+emf9wnuFPB74W+ADwUOA/R8QXZ+Z79j1j SZIkSZK0p2lO6X8ycBz4usx8FvAa4LnnG5iZP5uZT8zMZ2bmo4HfA75937OVJEmSJEkTmeaU/q8E XpeZm9311wCv2OuHImIJuC9w7fTTm9qXR8QVO9z2zsz86wOYgyRJkiRJ5aZp+K8G3jZ2/UbgvhER mZn3HhwRXwj8F+AzgRcCv7qfie7iPmOXv3+3gRHxSOC9PcxhFZiJiOjhd0/iKDBbF88RYCEitory l4HliNjcc2Q/loCViNgoyl8EViNirSh/AbgsIs4V5c8DlwHrRdvgbJe/UbQNjrr8zaJtcKbL34qI 9YJ8unwKt8HLWnxp/qh7gb0qfz4iForyjwNnu7ceVuWvRcRcYf5mRIyK8o8BRETVB0Gv0rb/oniO 0Lb/f1ILH5AVYPESqMEqa6CjhevPAnDsENdgc1iDVddgx2h9+Y6mafg3+cS3AMx039vJDcBXAZ8C vBT4IO0FgItt0ifYWeBudp/zhdoEsqffPWl+FOdvfx3W/C3zL4n8isUmxvKr7oPK/CzO5xLJr3wO XAp/f/U+2Pza/PF/D2N+9f1fnX+p1AAVqvf/1X//DNZgl0INtqtpGv4bgfuPXb8/8JHzHd0HyMyz tA/3+1BEvAT4Tvpp+Mf/p4DvA/5sh3Hvycw7esine1V5JjPv7OP3T5CfwGxh/hawUJi/AWwU5q8D W4X5a0AU5i8Ao8L8edq+7M7MPPDFJiJmaWcZ3Dn2lqeDzB/RXuG/MzMP/NXl7qjeYpdfcoSl+59h 7szMkiMc3ZH1O7t1ryJ/EbgrM88U5S8ApzLzVFH+HHA2M+8pyp8F1qr+N6JuH7BZuA8OgMJ8qF2D toD5wvxN2vZXWYNVbn9rULr9neNw12BztKP81mC1Ndiupmn4fwv4TxHx77ui5ltp7+PfDnwS8KbM vDMijm83191C0Nep9Pf27szcqeGXJEmSJOnQmKbhvxZ4KvDmiLgJ+CTgCWO3vxr4XNqp/C+LiM8A PgI8iHba/b+4KDOWJEmSJEl7mrjhz8zNiHgarYE/CvzVvU5d+GTg5u7yU4EHA1d233vPTqf+S5Ik SZKki2+aI/x0Tfv7drjtw2OXt4C/6b4kSZIkSdIBq/ovVCRJkiRJUo9s+CVJkiRJGiAbfkmSJEmS BsiGX5IkSZKkAbLhlyRJkiRpgGz4JUmSJEkaIBt+SZIkSZIGyIZfkiRJkqQBsuGXJEmSJGmAbPgl SZIkSRogG35JkiRJkgbIhl+SJEmSpAGy4ZckSZIkaYBs+CVJkiRJGiAbfkmSJEmSBsiGX5IkSZKk AbLhlyRJkiRpgGz4JUmSJEkaIBt+SZIkSZIGyIZfkiRJkqQBsuGXJEmSJGmAZqf9gYj4TODTgLdn 5i27jPsk4OHAGeDPMvP0Bc9SkiRJkiRNZaoj/BHxw8BvA08Cro+Ix+4w7hrgHcA1wPcDfxcRD9nn XCVJkiRJ0oQmPsLfHbF/HvDpmXljRHwL8FMR8YjMzHsN/33gFzPzXPezPwX8EPBtF2nekiRJkiRp F9Oc0v8E4G2ZeWN3/TXAq4CrgRvHB2bmB+/1s3d04/r2yIjY6W/6i/PMS5IkSZKkQZqm4f8k4KPb VzLzdEScBO7HvRr+cRFxX+C7gW+80Enu4Yqxyz+6y7itiHgE8P4e5rAKzETEvc90OChHgdmI2CrK PwIsRMRGUf4ysBwR60X5S8CRiFgryl8EViPibFH+Qpd/pih/nvYcPFf0HJjt8tciYrMgf9Tlrxc9 B2e6/I3C5+AqbR9/rjCfwufgsRYfC4X5sxExV5i/sMsL/geRvxYRo8L8zYiIwnzq4lkFRsU10HzR /h9gBVgsrsFWLoEaqGr/f9hrsDmswS6FGmzHXnx7UG8i4jjwOuDFmXldTzGTNtkJVC0GkiRJkiQd qGleDf8I8LjtKxGxDFzG2FH/cRFxDHg98LuZ+YL9THIPt41d/hHg7TuMe1dmfriPCXRH9mcy82Qf v3+C/C1gtjB/E1gozF8H1gvz14DNwvwlgML8BWq3/3naK6wnM/PAX9TrjirOdfkH/upyd1Rxvss/ 8FeXI2KGdoThZGaWHOHvngMntz83piB/scsvOcLTPQfvyv+fvTuPkywv63z/eTIi96rqrl7YRAQG BxUURrYRHPUy44rDyxFwuzKiojN6WxGXO+plBi96XcdlwO2yKAguCMLIVWxauCyieJFeEBVFmx16 q66u7q4l9+f+cU7QQVGRGZGZkU958vN+vfJVEZm/jO8vI06c8zznnDiVWXKEp30PnsnMM0X5fWAl M08X5feAtcy8uyh/hmYbdGdRPlC6DUqgV1wDzRXmbwCrxTXYRnENlIX5C3Coa7BZmn7SGqy2BtvW JA3/NcAvR8T9MvPjwH8ArgNubgP/FXBLZn48Io4CfwK8laYJPyjvysyrDzBPkiRJkqSL0tgNf2Z+ LCJ+AnhLRLwV+ErgG4au0P8Cmov4/Trw/cDjaI66vaPd+/u3mfnt+zl5SZIkSZJ0YRNd4CYzfyoi Xgn8C+C/ZObJoR//R2BwOsmvA39w3q9XXUxCkiRJkqRDZ+Ir2mbm+4H3j/j+4PYtwC17m5okSZIk SdqtqV6lX5IkSZIk1bDhlyRJkiSpg2z4JUmSJEnqIBt+SZIkSZI6yIZfkiRJkqQOsuGXJEmSJKmD bPglSZIkSeogG35JkiRJkjrIhl+SJEmSpA6y4ZckSZIkqYNs+CVJkiRJ6iAbfkmSJEmSOsiGX5Ik SZKkDrLhlyRJkiSpg2z4JUmSJEnqIBt+SZIkSZI6yIZfkiRJkqQOsuGXJEmSJKmDbPglSZIkSeog G35JkiRJkjrIhl+SJEmSpA6auOGPiPtHxOMiYmGMsVdExIN3NzVJkiRJkrRbEzX8EfE84E3A9wPv jYiHjhj3mRHxQeBjwHV7naQkSZIkSZrM2A1/RHw2cBXw+Mz8euCFwE+PGH4L8BXAY/Y8Q0mSJEmS NLH+BGOfDLwxM29v7/8O8OMR0cvMzeGBmXkXcFdEPHyf5jmuz4uIlRE/+7vMvPVAZyNJkiRJUpFJ Gv5PAz46dP9jQA+4F3DTfk5qQpcN3f6ZbcatRcSjgI9MYQ7HgJmI2JrCY4/jKNCPiM0dR07HEWA+ ItaL8peApYhYK8pfBI5ExGpR/gJwLCLOFeXPt/lni/LnaN6DK0XvwX6bv1r0Huy1+WsRsVGQP9Pm rxeuA44Bm4XvwWNARsR8YT4RMVeY34uISWqK/c6fi4heYf5aRFRdCHmw/BfFf2L5y8L8XnENNFe0 /gVYBhaKa7Dli6AGGnXA76DyD2sNNos12MVQg23bi0+yce4BwyuTbL+qNvAD4+bP0bwpp7FBnhn6 qmC++WH+RZFfUfAO51c8B9X5XCT5lctg9d9/MawDD3t+FucP/1uRX/38m39xbIMrVK//q//+iyn/ MNdg25qkWf848DlD9+/d/nvzBI8xDcOn6f9fwA0jxr07M/9xGhNo92jNZOYd03j8MfI3gX5h/gYw X5i/BqwV5q8CG4X5i0AW5s8DUZg/R7PCuyMzD3zvcntUs9/mH/je5fao5mybf+B7l9ujmnNtfskR pvZ/jbkjM0uOMLXvgVOZWXKEqX0P3JWZJUeYImIWOJOZZ4rye8BKZp4uyp+h2QbdXZQfwGZm3lmU nwCZeaoofwvoFddAc4X568BCcQ22XlwDbRXmLwAc4hpsluagsDVYbQ22rUka/j8BvjcijrQb1a8F /nRQ4EXE5wIfy8yTu5nwPnl7Zl5dmC9JkiRJ0kVh7IY/M6+LiNcBfxoR7wSeSnMhv4HXAj8MvLrd 2/EGms81HYmINwLvzczv2b+pS5IkSZKkUSb9/P130vxXe/cFfjIzbxn62dOAD7e3t4DnnPe7Jafa SZIkSZJ0GE3U8GdmAu8c8bPrzxv3l3ubmiRJkiRJ2q2qKypKkiRJkqQpsuGXJEmSJKmDbPglSZIk SeogG35JkiRJkjrIhl+SJEmSpA6y4ZckSZIkqYNs+CVJkiRJ6iAbfkmSJEmSOsiGX5IkSZKkDrLh lyRJkiSpg2z4JUmSJEnqIBt+SZIkSZI6yIZfkiRJkqQOsuGXJEmSJKmDbPglSZIkSeogG35JkiRJ kjrIhl+SJEmSpA6y4ZckSZIkqYNs+CVJkiRJ6iAbfkmSJEmSOsiGX5IkSZKkDpqo4Y/GgyLiAWOO /cyIuN/upydJkiRJknajP+7AiFgCXgNcAsxGxAeBb8rMtQuMPQ78EbAJXBoR1wLPzMzNfZm1JEmS JEna1iRH+L+DZgfBE4AvAB4AfMOIsd8H3Ax8MfBY4HHAk3Y/TUmSJEmSNImxj/ADXwu8NDO3gK2I eAXwFOC3LjD2a4Afy8wEViLiVe3vv26vE97BgyPikSN+dmNm3j3lfEmSJEmSLgqTNPz3BT48dP/D wKeNGHv/88Z+BPjXk01tbJcM3f6VbcadiYhHATdNYQ5HgZmIqPrIwlGgHxEbRflHgPmI+JSPdxyQ JWApIlaL8heBIxGxUph/NCLOFuXPt/lnivLnaN4D5yJiqyC/3+avFK0Dem3+atE6YKbNX4uI9YJ8 2vyNwnXAUZod4XOF+UTEbGH+TET0CvNnI6LqQsSD5T8K8zcjIgvzKVr/DvJ7xTXQXOH6bxlYKK7B li+CGuhcUf4Ch7sGm8UarLoGO7LToEka/lmaz+QPbNAU2hcyN8HYvVocc9wycBy4bQpz6NM84ZM8 n/udP/gyvya/V5jfK86v/vuH86s2NoP8ioK/+vWfGcqvajgG+RM+4MwAACAASURBVFU7Xatfg4sh v3odXJ2/VZwfxfnD/1bkV2+Dqpe/6vzq9c9hzq9+/q3B6muwHbMnmdwtwL2H7t+b0UfLP36BsTdP kDWJ4cf9H8DfjBh3XWZeN40JtHuUZjLzjmk8/hj5G0A/M08W5a8D84X5q8BqYf4SsF6YvwhsFebP AxTmz9Gs5E+2Hzk66PzBxuZkxYVJ26Oq/Tb/wPcut0dVZ9v8kiNc7TJ4MjNLjvC3y+CpzCw5wtUe 2b8rM0uOcLXvgTOZWXKEqV0GVzLzdFF+AGtVHxtsTyzYzMw7i/K3ADLzVFH+JtArroHmCvPXgIXi GmytuAbaLMxfAPIQ12CzNE2nNVhtDbatSRr+NwJfBbyyvf/vgWvasHngQcD72hf7Te3YN7Qbwq/i wp/1329XZ+bVB5AjSZIkSdJFbZKG/5eBt0XEr9B8XuXBwLe2P3sQ8F6a0+tXgP8OvKXd63pvms+X /O5+TVqSJEmSJG1v7IY/M2+OiMcB/47mM/nfN3T62keALwXW27Hvby+Q92+BM8CbMrPqYhaSJEmS JB06E11goP2M+qsu8P0zNKf8D3/vNuD39jQ7SZIkSZK0K1X/hY0kSZIkSZoiG35JkiRJkjrIhl+S JEmSpA6y4ZckSZIkqYNs+CVJkiRJ6iAbfkmSJEmSOsiGX5IkSZKkDrLhlyRJkiSpg2z4JUmSJEnq IBt+SZIkSZI6yIZfkiRJkqQOsuGXJEmSJKmDbPglSZIkSeogG35JkiRJkjrIhl+SJEmSpA6y4Zck SZIkqYNs+CVJkiRJ6iAbfkmSJEmSOsiGX5IkSZKkDrLhlyRJkiSpg2z4JUmSJEnqoIkb/ohYjIj7 R0SMMbYXEQu7m5okSZIkSdqtiRr+iPhu4H3A7wHXR8SnjRj3GRHxduAu4OY9z1KSJEmSJE1k7IY/ Ih4I/BTwhMz8QuAa4KdHDD8N/BjwlXubniRJkiRJ2o3+BGOfArw5Mz/c3n8R8J6I+JbM3BoemJm3 A2+MiIfv0zzHdb+IeMiIn300M1cOdDaSJEmSJBWZpOH/dOCDQ/c/BMwDVwK37OOcJnV06PZLthl3 MiIeA9w2hTkcAWYiYmMKjz1ufj8i1gvz5yNitSh/CViKiKodOovAkYg4V5x/dMeR0zFfnD9Hswye jYitnQZPQb/NPxcRmwX5vTZ/pWgdNNPmrxavg9YjYq4wfzMiZgvzMyIm2abvd35ERNWFgAfbwB2v LTTF/LW6+E8sfxXrv0E+Reu/QX6veP0zFxFrRfnLwEJxDbZ8EdRAZ4vyFzjcNdgs1mDVNdjyToP6 ABHx88AjRoz5H5n5/9AsUKeHvr8BJM2CXunYmOMuAz6N5roC+22e5gmfn8Jjj5vfL86fM78sf878 T+RXbWwG+VUbm0F+ryB/Zii/quEbLANVBvlZnF/V8M3R1ARVDd/gua/a6T4PBFDVcA7WPZXbwOF/ K/J7xfmHuQapzr+YapDDmD+LNVh1Dbbjaz84GvBCPvlI+bDBKfw3Af9i6PtX0Gzgqi/K97Gh2/83 8Pcjxl2fmX82jQm0e5VnMvOOaTz+GPlrQD8zTxblrwLzmXmiKH8ZWCrMXwJWC/MXgY3C/HkgC/MH xf6J8z9edED5fZp14YnMPPCNTUT0aFb4JzLzwBue9qhur80vaXjaI+snM7PkCFe7DJyq+thYuwzc lZklR9jaZeBMZp4pygdYyczTO42dUn4Ca5l5d1H+FrCZmXcW5W8AZOapovx1oFdcA821H2etyF8B FoprsJXiGmi9MH+B5v13WGuwwZlt1mC1Ndi2+gCZ+Q9jPOabgWdGxGxb1H0l8BeDAisirgTuLv6c /P/MzKsL8yVJkiRJuihM8nm/twPXA6+JiD8DngU8fejn7wB+GHh1u7fjJcBxms9WvxS4MTN/fF9m LUmSJEmStjV2w5+ZGRFPBb4KuD/wxPPODPge4D2D4cAftbdf3v5bcqqVJEmSJEmH0URX9G1P5f/D ET/7k6HbW8Cr9zY1SZIkSZK0W1VXVJYkSZIkSVNkwy9JkiRJUgfZ8EuSJEmS1EE2/JIkSZIkdZAN vyRJkiRJHWTDL0mSJElSB9nwS5IkSZLUQTb8kiRJkiR1kA2/JEmSJEkdZMMvSZIkSVIH2fBLkiRJ ktRBNvySJEmSJHWQDb8kSZIkSR1kwy9JkiRJUgfZ8EuSJEmS1EE2/JIkSZIkdZANvyRJkiRJHWTD L0mSJElSB9nwS5IkSZLUQTb8kiRJkiR1kA2/JEmSJEkdNHHDHxEzEXF8jHEREZdHxNHdTU2SJEmS JO3WRA1/RPx74P3AmyLiuoh44IhxXw18CHgPcGNEXBMRl+9xrpIkSZIkaUxjN/wRcQz4beApmfn5 wKuBXx0x/ATwZZl5P+B+wBnguXucqyRJkiRJGlN/grFfBfxDZl7b3n8h8BMRcTwz7xgemJl/OXR7 IyL+AnjCnme7s+MRcZ8RPzuRmRsHMAdJkiRJkspN0vA/gOZ0fgAy80REnAbuD9wx6pciYhH4FuBn dzvJHSwP3f6dbcZ9NCIeD5ycwhyWgJmIWJvCY4+b34+I1cL8+YhY3nHkdCwDi4X5S8BSYf5icf58 cf4czWuwHBFbBfn9ofzNgvzeUH7FTs2Zofz1gnza/NWImGSbtt/56xHRK8zfjIiqC/EuAUREUfwn tsFZmN8vWv8M8jeL3v+DfIrf/73iGmguIlYK8xeKa7DDXAMtFOdX12CzWINdDDXYtvoAEfFfgC8Y Meb3MvP32gc7f2W6yic33J+kLX5eCvwd8PIdp7w7l4057v7AQ4C/mcIclmie8NKGn099fQ4yf9B0 VVhsvw5r/kJx/txFlF+1sRnkV21sBvlVG5tBflXBvwis0DwXVflr1P3PN4s0r31Vx70IZPtVlT9T nN+nZv0D96x7Sht+6t7/SzTv/coaaND0VOXPF+Yf9hpovji/ugabxRrsYqjBtjU4GvInwLUjxgyO 6t8EPHbwzfZIyvH2+5+iPdLwEpodAl+bmdPaEH9k6PZvAf84Ytz1mfnmaUygPbI/c/5HGw5Ku1e7 n5nTOHthnPwVYD4zTxTlLwNLmXlbUf4SsFKYvwisF+bPA1uF+XM0G5nbMvPANzZDR5Vvy8wD39i0 O1ajzT/wjU27rp+h+dhUScHfvgYnM7Ok4G9fg1OZWXKEr30N7srMc0X5AZzJzDNF+UmzDj5dlL8F rGXm3UX5m8BmZt5ZlL8OkJmnivLXgF5xDTSXmbcX5Z8DFoprsOXiGmitMH8B2DjENdgszc5Wa7Da GmxbfYDM/OsxHvMvgJ+JiIW2qPlC4GPAR9vAJZqmY70NfyFwH+BrMvOgjnz/bmZefUBZkiRJkiRd tMY+/TAz3wNcA7w6Ir4DeBHw3KG9KdcA397evgr4VpodAv89In45In5w/6YtSZIkSZK2M+kFjr4J eBrNZ+G/LTP/bOhnPwnc2N5+O/c0/wMlp5pIkiRJknQYTdTwt59N+N0RP3v90O3rgOv2NjVJkiRJ krRbVVcUliRJkiRJU2TDL0mSJElSB9nwS5IkSZLUQTb8kiRJkiR1kA2/JEmSJEkdZMMvSZIkSVIH 2fBLkiRJktRBNvySJEmSJHWQDb8kSZIkSR1kwy9JkiRJUgfZ8EuSJEmS1EE2/JIkSZIkdZANvyRJ kiRJHWTDL0mSJElSB9nwS5IkSZLUQTb8kiRJkiR1kA2/JEmSJEkdZMMvSZIkSVIH2fBLkiRJktRB NvySJEmSJHWQDb8kSZIkSR00ccMfETMRMTfGuIiIoxHR293UJEmSJEnSbk3U8EfEs4AbgfdGxEtH Nf4R8U3Are3YsxHxOxGxuOfZSpIkSZKksYzd8EfEo4EfAb4AeCjw6cD3jhj+NuAhmXkv4IHAZwBX 7WmmkiRJkiRpbJMc4f9m4Pcz8+bM3ABe0H7vU2TmRzPzzvb2TcB7gNzrZMcwFxELI77iAPIlSZIk Sboo9CcY+xnAm4fu/yPN0fsLiogHA98KPAI4C/zmLuY3joWh23+4zbh/iIj/BbhzCnNYBGYiYnUK jz1ufj8ilgrz5wvzl4DFQ5y/WJw/X5w/R/McLEXEVkF+fyh/syC/N5S/UZA/M5S/XpDPUH7VNWMW gbWIqLoQ7iKwUbhjexHIiDiIHfuj8meK3v+D/F7R+3+Qv1n8/iMi1grze8Xb4LniGuQw12DVNdBC cX51DTaLNVh1Dbaw06A+QES8ADg+YszPZea7ad7QK0PfPwcciYjIzAtt5DeAkzQ7Br4AeABw+9jT H9+9xxz3UODhwF9PYQ5HgQCqNvZHaRa4igUN4AhN01W1sV+iebNV7nBZ5pPfHwdpgeY1OFuUP9fm Hy3Kn23zzwFVG5sjNK9/1cbmCM3yX7WxOULz/q9qOI602TteUHaK+Zs0y2JVfjLZTvz9zp+h7n/+ OULz3Fft8Bgsf5X5WxzMmZQXMlj3V+1wOUqz7FXWQLPUrf+WaZq+yhrs/B7hIA1qoHNF+fNYg1mD 1ddg2xoUB3/M6L0DN7f/3gpcPvT9y4GbRzT7ZOaHgV8EiIgfAH4K+Iodpz25Dw3d/gPggyPGXQ+8 cdR89yIiVoCZzLxjvx97zPxzQD8zTxblnwXmM/NEUf4ysJSZtxXlLwFHMvPWovxFYDUzbynKnwc2 CvPnaFbyt2TmgW9sIqJPs5G7NTMPfGPTHtVO4Lb241YHnT9o8k5kZknB287hZGaW7PRrj6yfysyS grc9sH9XZpYUvO2R/TOZeaYofxNYyczTRfkbwFpm3l2Uvw5sDj5KWZC/CpCZp4ryV4BecQ00l5nT OKg1Tv4RYKG4BlsuroFWCmuQBZr3/2GtwWaxBrsYarBt9QEy8+oxxv5/wJNoGneAJwJ/OeZ8NjmY PX8vHvNvkSRJkiSp0yY5/e/lwLMj4nk0R9WfDTx58MN2D/ejM/OGiPhZ4DTwcZrP+f9vwNfv16Ql SZIkSdL2xv68XXuq2ONpLnr3AODLMvOdQ0N+EPhYe/t3aT7H8LnAGeBxmXnNvsxYkiRJkiTtaKIL /LSfD/n5ET/7paHb19N8Zl6SJEmSJBWouqKuJEmSJEmaIht+SZIkSZI6yIZfkiRJkqQOsuGXJEmS JKmDbPglSZIkSeogG35JkiRJkjrIhl+SJEmSpA6y4ZckSZIkqYNs+CVJkiRJ6iAbfkmSJEmSOsiG X5IkSZKkDrLhlyRJkiSpg2z4JUmSJEnqIBt+SZIkSZI6yIZfkiRJkqQOsuGXJEmSJKmDbPglSZIk SeogG35JkiRJkjrIhl+SJEmSpA6y4ZckSZIkqYNs+CVJkiRJ6qCJG/6IiGlMRJIkSZIk7Z+xG/6I mI2IXwVujIi/j4j/OMbvfEZEvDcifnxPs5QkSZIkSRPpTzD22cDnAJ8FfBrwVxFxXWb+zYUGt2cC /DpwArhyrxOVJEmSJEnjm+SU/m8Gnp+Za5n5AeA1wNO3Gf8M4IPAn+96dpIkSZIkaVcmOcL/YOAf hu6/D3j0hQZGxP2AHwCeAPzIrmc3nvmh238cETli3LuBrwDunsIcFmhOaliYwmOPm98rzp8rzp83 vyx/vjh/rp3DQkRsFeT3h/I3C/J7Q/kbBfkzQ/m9gnyG8quuMTPIL4r/RP6o7d9B5G8WLf+DfIqW /0H+TESsF+ZvRcRqUf4CQPE2cKY4f/YQ1wDmH+4abBZrsIuhBttWv23Of3TUgMy8qi3iloGzQz86 Cxw9f/zQqfzPycw7D6AAut/Q7e3OWPh8mh0U109hDseAyosZHqVZ4KqKvSM0TVdVsbcELAJVxd4i zfujqthboFkGq4q9OeASYKUof7bNXwOqNjaX0Lz+VRubS2iW/6qNzSU0f3vVe+ASmtd+rTAf2san KH+sjf4U82fbr6r8VSY7iLHf+es078Wq/C3q6pBjRbnD+TPU1kCz1Gx/oKk/5qmtwZaorYGOUrf+ n+eedVAFazBrsEt2GtQHzgHv2m5QZm5GxG3AZcAH2m8fB267wPB/Q9NcXxMRVwGPAhYj4mmZ+arx 5z+2Dw7dfj3wkRHjrgeuzsx93yBExDlgJjPv2O/HHjP/LNDPzJNF+UeB+cw8UZS/DCxl5oWWx4PI XwKOZOatRfmLwEpm3lyUPw+sF+bP0axkb8nMA9/YRESfZiNza2Ye+Mam3SG7BdyWmQe+sYmIQaF9 IjNLCr52R/PJzCwpuNod26cys6Tgao/s35WZ54ryt4AzmXmmKH+DZh14uih/HVjLzGmcQThO/hqw mZl3FuWvAGTmqaL8c0CvuAaay8zbi/KPAAvFNdhycQ10LjNvKcpfAFYPcQ02izXYxVCDbavfNqkv HeMx30Vziv617f0vpGmwz3dr+3j3ae8v0+x9u3yMjN0Y/iNfkJlXTylHkiRJkqR/NiY5/e0XgFdE xMeBhwAPB74RICK+BHhhZv7LzPx74DmDX4qInwYuzcxf37dZS5IkSZKkbY3d8GfmGyPi64CvBe4E Hj90+taHgF8b8avXUPe5RkmSJEmSDqWJLnCTmW8D3naB738A+MURv/P/7m5qkiRJkiRpt7a7qr0k SZIkSfpnyoZfkiRJkqQOsuGXJEmSJKmDbPglSZIkSeogG35JkiRJkjrIhl+SJEmSpA6y4ZckSZIk qYNs+CVJkiRJ6iAbfkmSJEmSOsiGX5IkSZKkDrLhlyRJkiSpg2z4JUmSJEnqIBt+SZIkSZI6yIZf kiRJkqQOsuGXJEmSJKmDbPglSZIkSeogG35JkiRJkjrIhl+SJEmSpA6y4ZckSZIkqYNs+CVJkiRJ 6iAbfkmSJEmSOsiGX5IkSZKkDpqo4Y+IL4+IayPixoh4QUTMjhj3ryPihvO+HrI/U5YkSZIkSTvp jzswIu4LvBL4d8BfA68Dfhj48QsMPwJsAl8/9L2P7H6akiRJkiRpEpMc4f9G4C2Z+a7MXAN+FnjG NuPPZeY/DX2t7mWikiRJkiRpfGMf4QceAvz90P33Ag+KiH5mblxg/KMj4hRwCngZ8LzM3Nz9VEca /ljB70fE+ohxNwBPBc5OYQ7zwExEzE/hscfN7xfnz5lvflH+XPs1HxFbBfn9ofxprON20hvK7xXk zwzlV10XZpBfFP+J/CzOr1j+B/kbEXGhWuCg8nOb7f9B5EdErBXlzwObxdsAivN7xfmzh3gbbP7h zp/FGuxiqMG21QeIiGcB9x0x5pWZeT1wKXDT0PfPAAEcBe4473feA3w28EHgYcBrgduB5489/fF9 +tDto9uMeyLwBODaKczhGM1zUVVtHqVZ4KocoS24ivKXgEWgqthdBJZpPsZSYYFmGawsdo8DVcXu bJu/Qc0y0G/zN6lZBnpt/hbNc3DQZtr8pG4ZPN7+W7UMHqd5HqrOZDtOsxwuFubPt19V+auMUfRM MX+dTz4AcZAupXn/V9UBx9p/q3b4HSvMhqYGqnrtoak/5qmtwZaorYGOUrP9g+a5vwRrMGuw2hrs Q9sNGhzhv4XRT9LgiPit3FNUQbOBWac5gv9JMvOWobt/ExE/AzyF6TT8Hxi6/TY+eafEsOuB12fm vi+MEXEWmMnM83d8HIiIOAP0M/NkUf5RYD4zTxTlLwNLmXlbUf4ScCQzby3KX6T5CM3NRfnzwFpm jnrvTTt/jmZddMs03t9j5PdpVvK3Tukspp3yezTr79tGnG017fwZmg3dicwsKXjaI/snqz461h7Z P5WZK0X5W8BdmXmuKH8TOJOZZ4ry14GVzDxdlL9Gsw68uyh/FdjMzDuL8s8BZOan1IMHlH8W6BXX QHOZeXtR/hFgobgGWy6ugc6e13scZP4CzfrnsNZgs1iDXQw12Lb6AJn5e2M85vXAM4fuPw54d2aO s0fxXjRnBEzDcP5PZebVU8qRJEmSJOmfjUk+w/9q4HkR8UPAXwE/BTxn8MOIuB74nsx8e0R8N83e hg8Anwv8KM0RfkmSJEmSdADG/sxTe6reFwJXAt8K/OB5Zwa8luajAdBc0O8RwHcCDwSemJlv2I8J S5IkSZKknU1yhJ/M/Ajwv4/42fOGbr8ZePPepiZJkiRJknar8qqmkiRJkiRpSmz4JUmSJEnqIBt+ SZIkSZI6yIZfkiRJkqQOsuGXJEmSJKmDbPglSZIkSeogG35JkiRJkjrIhl+SJEmSpA6y4ZckSZIk qYNs+CVJkiRJ6iAbfkmSJEmSOsiGX5IkSZKkDrLhlyRJkiSpg2z4JUmSJEnqIBt+SZIkSZI6yIZf kiRJkqQOsuGXJEmSJKmDbPglSZIkSeogG35JkiRJkjrIhl+SJEmSpA6y4ZckSZIkqYNs+CVJkiRJ 6qCJGv6IuCoirouIv4yIp+4w9lER8UcR8eF2/GftbaqSJEmSJGlc/XEHtg3+s4AvAi4B3hYRH8jM ay8w9mHAHwPfA7wZeABw177MWJIkSZIk7Wjshh/4duD5mXkTcFNEvKL93qc0/MB/BX4lM1/V3j+x t2lKkiRJkqRJTNLw/0vgZ4fu/w3wDSPGPhZ4X0S8EzgGvBb4b5m5vqtZbm/4b3hZRKyMGHcD8HRg 1M/3Yg6YiYi5KTz2uPn94vy5Q54/a35tPs0ysFWQ3x/K3yzI7w3lV1yXZWYoPwryGcrP4vyK5W84 v2L5G86fxjZ+HHPAVvE6iOL8zUP+9/cOeQ1SnV9eA5hflj+LNdjFUINtqx8RR4Crthnz/Mw8CxwH Tg99/27g0hG/c2/gy4GvbO+/nuYo/8/vNKFd+Iyh2/faZtwDaD6OcKEzEvbqGBDUXQTxKM0CV1Vs H6FZ4VQV20vAIlBVbC8Cy4X5CzTL4EZR/hzN+qGq2J8FLgM2qXkN+m3+VjuHg9Zr85OaZWCmzYe6 ZeAymvXfWmF+D1gtzJ9lOju0x81faL8qHKd57ucL89dpG98Cl9KsfyY5iLOfjrX/9grzZ6itgXYs uKdomWbZr6zBlqitgY5Ss/2F5rm/BGswa7DaGuzD2w2aZONwG80CPXApo0/VvwV4SWbeDhARLwKe ynQa/vcP3X7nNnO6HngD01kYVmie8Dum8NjjOEfzWp4syj9Ls8Kr+ujGMs3G5rai/CWaDf6tRfmL NMXuLUX58zQruar8OZr39S3UbWy2aF7/qo1N0iz/VRsbaN7/VQXHDM36r6rhDuAUdQ03NNfJOVeU ncCZ9qvCJs1zf3qngVOyQbOz6e6i/HWa5+DOovzB++5UUf4KzXqwsgaaA24vyj9C0/RW1mDL1NZA K9TVIAs07//DWoPNYg1WXYPtuLOvn5mngZ8e4wH/GngM8Mb2/mNoTuu/kBto3oADC0yvEBr+I5+b mVdPKWekwSksmVmyd7PN3zLf/MOcXzWHiyA/ivOpzG/nYL755tfmV9dAcciff/PNtwY7vDXYzg3/ BI/5y8ArI+IdNEf3vxZ4XBv2WcArM/MR7djnAy+KiOvb+z8A/NAEWZIkSZIkaQ/Gbvgz860R8W3A f6Y5fetJmXlj++MzwJ8PjX1LRFwF/Cea05x+IDNfs3/TliRJkiRJ25noAi+Z+XqaC/Cd//2PAN99 3vfeQPOZeUmSJEmSdMCqriovSZIkSZKmyIZfkiRJkqQOsuGXJEmSJKmDbPglSZIkSeogG35JkiRJ kjrIhl+SJEmSpA6y4ZckSZIkqYNs+CVJkiRJ6iAbfkmSJEmSOsiGX5IkSZKkDrLhlyRJkiSpg2z4 JUmSJEnqIBt+SZIkSZI6yIZfkiRJkqQOsuGXJEmSJKmDbPglSZIkSeogG35JkiRJkjrIhl+SJEmS pA6y4ZckSZIkqYNs+CVJkiRJ6iAbfkmSJEmSOsiGX5IkSZKkDupPMjgiHgs8F7gc+H3gFzMzLzDu u4Annfft92bmD+12opIkSZIkaXxjN/wRcS/gauCbgRuAPwLOAb92geFvBN47dP/ngGt3P01JkiRJ kjSJSY7wPx34s8x8PUBEPA/4cS7Q8GfmPwL/2I67F/B5wNP2PFtJkiRJkjSWSRr+zwLePXT/euCh EREXOq1/yDcDb8vMD+5ifuPoDd3+1Yi4e8S4G4DvAtamMIc+MBMRE31EYp/z++abf5jz2zlsFedH QX5vKL8gnpmh/O22BdM0yN8szj/U78FDnr9VnB/F+RTn9w758me++dZgh7sG29ZgJf1NwGUjxlyd mf9E87n99w19/y5gFjja3v4U7RP/7cBPjD3tyT1w6PaDthn3ecCrgXdNYQ7HgGDCayLso6M0C1xv p4FTcgSYo3kOKiwBi0XZtNnLQFWzs0CzDFY1O3PAcWCjKH+WZv211X4dtD7N+jGpeQ16bT7UvAYz bX4A6wX5tPkzTGeH7rj5fWC1MH8OWCnMX6RZF1e4jOa5r9oOHKdZ9heK8i+lWffNFeUfa/+dLcyf obYGmqXuQtjLwDy1NdgStTXQUWq2/9A895dgDWYNVluDfWS7QYMG9d7t14UMNqAnuGelDs3CvQaM OqIO8FjgvsBrd5jsXrx/6PbfAadGjLsWuIbpvBirNE/4HVN47HGs0LyWJ4vyz9Gs8E4U5S/TbGxu K8pfonkObi3KX6R5L1blz9OsZKvy52g2MrdSt7HJNr9qYwPN8l+1sQma939Vw9+jWf9VNdwzNNue qoY7aHa8nyvKBzjTflXYonnuTxflb7JzPTRNG+0c7izKH+xoG1V/Tdsq96wDKpyj2Q7dXpR/hKbp razBlqmtgVYL8xdotn2HtQabxRoMamuwHfUBMvMXxxj7t8CXDt1/FPB3O5zO/+3Ab2fmNIug4fwf yMyrp5h1Qe1ppJmZJXv32vwozt803/zK/HYOB76xac9kKnsO2lPIKvMHe9XLlwHzzTe/LJ9Dnl/9 /JtvflX+DNZg1TXYjs/7JKcfvQJ4XEQ8LSIeCvwY8IKhwDdGxOcP3V8GvgF4yQQZkiRJkiRpH4zd 8Gfm7cC/BZ4C/Arwgsz8jaEh7+eTTyd8KPAbmXnDfkxU0867LQAAIABJREFUkiRJkiSNb6KLzGXm X9Mctb/Qz77zvPvXAdftfmqSJEmSJGm3qq4oKkmSJEmSpsiGX5IkSZKkDrLhlyRJkiSpg2z4JUmS JEnqIBt+SZIkSZI6yIZfkiRJkqQOsuGXJEmSJKmDbPglSZIkSeogG35JkiRJkjrIhl+SJEmSpA6y 4ZckSZIkqYNs+CVJkiRJ6iAbfkmSJEmSOsiGX5IkSZKkDrLhlyRJkiSpg2z4JUmSJEnqIBt+SZIk SZI6yIZfkiRJkqQOsuGXJEmSJKmDbPglSZIkSeogG35JkiRJkjrIhl+SJEmSpA6aqOGPiCdFxB+2 X1+5zbj5iPhvEfHmiLgmIr4rImLv05UkSZIkSePojzswIh4H/CbwH9pvvSYinpSZ77rA8OcATwa+ G1gGfgU4Dbx8b9OVJEmSJEnjGLvhB/4z8KLM/HOAiHgJ8J3AhRr+zwZeOTT2dcBD9zhXSZIkSZI0 pkka/ocBfzR0/zrg2SPG/ibwvIh4N3AE+GLgW3c1w50Nfyzh5yPiv44Ydz3wg8D6FObQA2YiojeF xx43v2e++Yc5v51DxUeHhvML4j8pPwvyZ4bytwry4SJZBs03vzCfQ55f/fybb/6hzscarLoG21a/ XUCevs2Y12TmXcAVwF1D378TuHLE77wDuBH4MWAR+FPgn3ae8648aOj252wz7vHAG7jwGQl7dQwI YHYKjz2OozQv9iQ7cPbTEWCOuotALtEsZ1XXiVik+ehKlQWaZbCq2ZoDjgObRfmzwGVAUvMc9IHL 29sVz0GPZv0cwEZB/kybP8N0dqiO4wqa52GtMH8WWC3MnwdWCvOXqFsPXkbz3C8V5R+nWfYXi/Iv pVn3zRflH2v/nSvMn6G2BppljKJ7SpZpXvvKGqzqvQdNDXSUpgaoMA9cgjWYNVhtDfbR7Qb124GP 3mbMH7f/nqR5Qw0cA24f8Tt/CLw2M7+u3dvza8Dzge/Yed4T++DQ7Q8Ad48YdwPwJqZTEK7RPI93 TOGxx7FK81qeLMpfoVnhnSjKX6bZ2NxWlL9E8xxU5S/SFJtV+fM0K/mq/DmaDc1t1G1saPOrNjbR 5ldtbGZo3v9VDf9g/VfVcPeAU9Q13DM0O+TPFeUHcKb9qpA0z/3povwtmjpgVP0xbZvt151F+YP3 /ami/DWa92BlDTTH6Jp42s7RNL2VNdgytTXQWmH+As2297DWYLNYg10MNdi2+pm5Dlw1xgP+PfAI 4DXt/c9rv3chD6E5yk9mZkS8A3jGGBm7MfzifndmXj2lnJEiYgOYycyKF3qQT3F+rzh/w/yy/F5x /gzNSnYjMw98Y9OeQjbIP/CNTXsKWdkycN7zf1jfA+abX52/echrkCzOr64Bq5c/8w9vDTY4sm0N VluDbWuS039eBHxnRDw8Ij6X5oJ9L27D7hcRV0fE4HS2twDPjoj7RMSDgP8E/Nkkf4AkSZIkSdq9 sT/vlJlvjYhnAS9ov3XV4Cr8reG9C1cB/yfweppTvd4A/OQe5ypJkiRJksY00QVOMvP3gd+/wPc/ Dnz10P3bGe9jApIkSZIkaQqqrugpSZIkSZKmyIZfkiRJkqQOsuGXJEmSJKmDbPglSZIkSeogG35J kiRJkjrIhl+SJEmSpA6y4ZckSZIkqYNs+CVJkiRJ6iAbfkmSJEmSOsiGX5IkSZKkDrLhlyRJkiSp g2z4JUmSJEnqIBt+SZIkSZI6yIZfkiRJkqQOsuGXJEmSJKmDbPglSZIkSeogG35JkiRJkjrIhl+S JEmSpA6y4ZckSZIkqYNs+CVJkiRJ6iAbfkmSJEmSOsiGX5IkSZKkDpqo4Y+IJ0TEyyPiFRHxxduM 60XEVRHxuoh4YUQ8bO9TlSRJkiRJ4+qPOzAiPhf4n8C3ABvAqyLiKzLzugsM/zHgS4BnAQ8E3hAR j8nMm/Y6YUmSJEmStLNJjvB/F/Bbmfn6zLwGeDFw1YixTwd+JDOvy8zXANcAz9zbVCVJkiRJ0rjG PsIPPAJ4wdD9vwL+jxFjF4GVofvn2t+fhhi6/RMR8ewR464FngtsTmEOM8BMRFRdE8F88w99fjuH 6vwszq94DarzPzEH880/xPlZnM8hf/7NN/9Q52MNVlmD7fjE99vJPXmbMW/KzLuBK4E7h75/CrjX iN/5U+BZEfEdwP2BpwD/MM6sd+HBQ7cftc24LwP+gqbx32/HaJ7suSk89jiOAj1gtij/CM3f3ivK X6LZyVS1slsElhnjDTclCzTLYMWKDprX/jiwVZQ/C1zW3q6YQx+4nOb1n8YOxZ30gCtolv+NgvwZ mu1DD1gvyKfN7wNrhflzwGph/gKfvKP9IF1Bsw48W5R/Gc1zv1yUf5xm2V8qyr+UZt23UJR/rP13 vjB/htoaaJbJDqLtp2Wa576yBluitgY6WpQNzXN/CdZgFM3BGqypAT6+3aA+zRP01G3GvBO4G7iD ZqU2cBQ4OeJ3ngX8PPAe4APAH9A8GdPwoaHbN9GcTXAhNwBvZToF0TrNE37HFB57HGs0r+Wo12Pa VmlWeCeK8pdpNjZV+Us0z0FV/iLNSqYqf55mQ1eVP9jRdoK6jU20+VUbm5k2v2pj02vzqxr+WZr1 X1XD3afZCV7VcPeAuxi9/Zu2GeBM+1VlBThdlJ002+G7i/K3aNY9d+40cEoG651TRfnrNO+Byhpo Dri9KH+FpumtrMFWCvMXaZaBqvwFmvffYa3BBjvarMFqa7Bt9TNzE/jmMR7wfcDDgVe19x/Wfu9T ZObtwDMG9yPiD4B3jJGxG8NP7rdl5tVTyhkpItaBmcwsKXbb/CzOr/771w9xfr84f6Y4P2g29uuZ eeAbm/YUskH+gW9sImJrKP/ANzaD15/D/R403/zq/M3ifIrzt4rzozi/d4iX/+oaqFecX12DgTXY xVCDbWuSU6BfDDwzIh4YEZ9OcxG/F7dhl0fEqyNiub3/ORHxmRFxr4j4HuAxwK9P/FdIkiRJkqRd GfvzRpn51oj4UeDVNKdOPK+9Wj80Ow6u4J7P7zwA+Fma03z+Cnh8ZladaidJkiRJ0qEz0QVGMvNl wMsu8P3bgC8Zun81cOCn1kuSJEmSpEbVVc0lSZIkSdIU2fBLkiRJktRBNvySJEmSJHWQDb8kSZIk SR1kwy9JkiRJUgfZ8EuSJEmS1EE2/JIkSZIkdZANvyRJkiRJHWTDL0mSJElSB9nwS5IkSZLUQTb8 kiRJkiR1kA2/JEmSJEkdZMMvSZIkSVIH2fBLkiRJktRBNvySJEmSJHWQDb8kSZIkSR1kwy9JkiRJ UgfZ8EuSJEmS1EE2/JIkSZIkdZANvyRJkiRJHWTDL0mSJElSB9nwS5IkSZLUQf1xB0bEFcCXAI8E PpSZL9ph/BOB/xU4A/xaZr53D/OUJEmSJEkTmOQI/5cCzwAeBzxlu4ER8UXA7wCvAd4NvCUi7rvL OUqSJEmSpAmN3fBn5u9m5lcDfzDG8O8DfiEz/zgzXwK8CXjmLucoSZIkSZImNPYp/RP6V8AvDd3/ S+CLp5QVQ7d/JCKeMWLc9cDPZebWlOYhSZIkSdJFox8RfZrP5o/y9sxcmfBx7w3cMXT/FHDlhI8x rgcN3f6ibcZ9PfC3EXHtFOZwDIiIWJjCY4/jKNCLiPmi/CPAXETMFuUvAYvtslxhEViOiF5R/gJw LCJix5HTMQccr4tnFrgMmImIih16feBymvfgZkF+D7iCZn2+UZA/Q7N+n42I9YJ8aLY5cxGxVpR/ L2AhIlaL8q8EliJi0m31frkCOBsRZ4vyLwNWI+JMUf5xYD0ijhTlXwpsRcRSUf4xgIhYLMyfKa6B ZiNirih/GZgvrsGWimugoxFRdSHyeeASazBrsOIa7KbtBvVpXqirthlzAzBpEXGKZgU0sAzcOeFj jOsjQ7fvBkYVnDcAfw5MoyDZpHnC79hp4JRs0LyWJ4vy12lWOFX5qzTLaFX+ErBWmL9IswxW5Q+K rKr8OZozfU4CVRubmTa/amPTa/OrNjaD9U9Vwz9Hs/6tarhnabZxVQ13n2b7d64ov0ezba1quIPm tT9dlA/Nsn93Yf4m06uzdjJY754qyt/knnVghXWadUBV/hrNdriyBlstzF+k2fZV5S/QvAcOaw02 izXYxVCDbaufmeeAr9nn8BuBz6Y5lR/gs4AP7HPGwHCB+XWZefWUckZqj+rMZGZJsdnmbxbmzwEU 5veBXmF+D5gtzJ8B1grzKc5PmoJnteIjO+0e5UH+gW9s2uVvkH/gG5vB8tfmlzT87ZH91cJl0Hzz K9eB1TXAKpTWAKvU1gBzQBbmzwJRXIP1i2ug+cL84HDXYFtYg10MNdi2xj79JSIWI+IhNKcuLkfE QyLiyvZn942IFw+dTvQy4Hsj4mhEPBj4RuClk/4RkiRJkiRpdyb5zPPDgBcP3X818NvAz9GczvJo 7tmB8BvApwPvojnN5/sz87o9z1aSJEmSJI1l7IY/M98FPHLEzz4w/LP2lI7ntl+SJEmSJOmAVV3R UpIkSZIkTZENvyRJkiRJHWTDL0mSJElSB9nwS5IkSZLUQTb8kiRJkiR1kA2/JEmSJEkdZMMvSZIk SVIH2fBLkiRJktRBNvySJEmSJHWQDb8kSZIkSR1kwy9JkiRJUgfZ8EuSJEmS1EE2/JIkSZIkdZAN vyRJkiRJHWTDL0mSJElSB9nwS5IkSZLUQTb8kiRJkiR1kA2/JEmSJEkdZMMvSZIkSVIH2fBLkiRJ ktRBNvySJEmSJHWQDb8kSZIkSR3UH3dgRPSAxwKPBi4HnpeZWyPGzrVjHwUsZuZP78NcJUmSJEnS mCY5wn9v4NeAfwM8d4fffSjwS8CXAD+828lJkiRJkqTdGfsIf2Z+HHhkRNwfeNoOY98DPDoiHg68 fW9TlCRJkiRJkxq74b+IxdDt74uIp44Ydz3wq5mZBzAnSZIkSZJK9QEi4qHA0RFjPpyZtx7clCb2 wKHbX77D2PdHxPVTmMMxICJifgqPPY6jQK+9dkKFI8BcRFTtQFoCFtvrTFRYBJYjouoimAvAsYjY ceCUzAHHI6JqZ9oscBnNe/CC1xWZsj7NdU1mImKzIL8HXEGzDtgoyJ8BrgT6EbFekA9wL2A2ItYK 8+cjYrUo/0qadeBKUf4VwNmIOFuUfxmwGhFHivKPA+sRsVyUfymwFRGLRfnHACJioTB/prgGmo2I 2aL8ZZr1T2UNtlRcAx2NuiJoHrjEGswarLgGu2m7QYOVw3cBjxwx5heA1+3fvPbdx4ZurwOjFrZ3 A38FnJ7CHJLmTINTU3jscWzRLHBV+Zs0K5yq/HVgrTB/DdgozF+kWQar8udpVjhV+XPcs/xXbWz6 bX7Vxma2za/a2Aze/1UN/wJwJ1DVcM+3+VUN9xxwN3CuKH8WOAucKcrv0bz209i+j2OGZtm/uyg/ aNZ9dxblD1RtA5LabdAm96yDK2zQrIMqa7D1wvxFmuW/Kn+wo+uw1mCzWINdDDXYtvoAmfl9U5/O 9Awf0XlyZl590BNoj+zPZGZJsdfu1e4X5s8CWZjfo/b5n6H2+Q9gvjA/gdXC/C2aYn9l1P8cMuX8 /lD+gW9s2uV/kH/gG5t2+R/klzT87ZH1lcwsafiH8qveA+bX568V528W5q8AFObPA73iGmirMH9Q y1fWYJXPfwBzhfkAC4e4BtvEGuxiqMG2NdHpNxFxb5pTFwHuExFXDv3sORHxyPZ2RMR9aE5xmImI +0TE5ZNkSZIkSZKk3Zv08z5/SvNZnRuBtwAfBp7Y/uyJwLXADTSnNwyuzn9re/sGYNQF9SRJkiRJ 0j6aqOHPzM/b5mdPHLq9ATxkD/OSJEmSJEl7UHVFTUmSJEmSNEU2/JIkSZIkdZANvyRJkiT9/+3d eZxcVZ338c+v1+x7SICAYV+SsGMADUZARgTZXBBBVBZFxAUn+riOoPiIj6IOo6iMIjojoqMjoqAo QlgElE3AEYjAIIphExASspD07/njd4q+dKqqb3VV94mV7/v16ldXd52q761bt849595zT4m0IXX4 RURERERERNqQOvwiIiIiIiIibUgdfhEREREREZE2pA6/iIiIiIiISBtSh19ERERERESkDanDLyIi IiIiItKG1OEXERERERERaUPq8IuIiIiIiIi0IXX4RURERERERNqQOvwiIiIiIiIibUgdfhERERER EZE2pA6/iIiIiIiISBtSh19ERERERESkDanDLyIiIiIiItKG1OEXERERERERaUPq8IuIiIiIiIi0 IXX4RURERERERNqQOvwiIiIiIiIibUgdfhEREREREZE21FW2oJkZsBWwBzAT+Ia7P1Oj7HjgEGA3 YAVwsbvf2vziioiIiIiIiEgZjZzh7wUWA8cAXwAm1il7EnAU8GdgOfArM3v1EJdRRERERERERBpU +gy/u68EZplZF/DcIMXPcffPV/5IowPeCvxkSEspIiIiIiIiIg0p3eFvhLuvGfCvzYBHhyNrgBPN 7IAa990GXOjuPgLLISIiIiIiIpJVF4CZbQqMr1HmcXd/fKgBZrY3cDSw61CfYxCzC7dfM0jZx8zs 9mFYhgnEQIaeYXjuMsYDnWbWnSl/HNBjZp2Z8scAo80s1ySUo4GxaSRLDqOACWaW62BWDzDZzPoy 5XcDUwAyLUMXMDXibW2G/E5gGtBhZgMPto6EDmA6UQcNNvpruEwHusxsdcb8HjNblTF/lJmtzJQ/ jagDn82UPwVYZWZjM+VPBp4zszGZ8icBfWY2KlP+RAAz682UP4Go/3K2gbrTCNgcxgK9mdtgYzK3 gcbni6cXmKg2mNpgGdtg04Cl9QpVKqf3APvVKHNe+mmYme0M/BB4vbv/aSjPUcLDJcvdBdwOPD1M y9ExjM9dRmfGfCcqnFz5a4E1GfPXAH0Z858DLGN+L1GX5MrvIXY4TxPvw0jron/7z7Wz6U35uXY2 o1J+rg7/GOAZIFeHe3TKz9XhHpXyV2TK7wWeJebsyaGbeO+XZcqvXOpYdSLjEdBJ1D256uBKT2tD bgNV9kE59AGrM+avJe/2V9nv5MofRd4+QO42WDdqg60PbbC6ugDc/QOtTjezecBlwInufkWrn7+g 2MA6DPhFjXKrhms4fzqz3+HuWRpb6ah2V8b8LqAvY34HYBnzDejMmA/QkzG/DxidMX8tUQ+scPcR 39mk7b+SP+I7m3RWp5I/4jub9Pmr5Gfp8Kcz2yvcPUuHv5CfpcNfyM/1GVwf8ldmzl+dMX80sDZj fi9Axvwe8u6Du8i7/jsBz9wGy9kGBujOmO9A7wbcBluD2mDrQxusroaGH6XhcpUhU2PNbJy7L0v3 vQ34nbv/1sx2AC4H3g9cY2bjiA7hcA/3W52rwSUiIiIiIiKyPmn0mudfAXcDjwBXA3cU7jsE2CHd Piw999nAvennB00tqYiIiIiIiIiU1tAZfnffq859hxZunwWc1cRyiYiIiIiIiEgTcs1qLiIiIiIi IiLDSB1+ERERERERkTakDr+IiIiIiIhIG1KHX0RERERERKQNqcMvIiIiIiIi0obU4RcRERERERFp Q+rwi4iIiIiIiLQhdfhFRERERERE2pA6/CIiIiIiIiJtSB1+ERERERERkTakDr+IiIiIiIhIG1KH X0RERERERKQNqcMvIiIiIiIi0obU4RcRERERERFpQ+rwi4iIiIiIiLQhdfhFRERERERE2pA6/CIi IiIiIiJtSB1+ERERERERkTakDr+IiIiIiIhIG1KHX0RERERERKQNqcMvIiIiIiIi0obU4RcRERER ERFpQ11lC5qZAVsBuwEd7n5RnbKbAq8CNgP+DvzY3e9tcllFREREREREpKRGzvC/DFgMLALOGqTs vsDOwFPAXOBWM9trKAsoIiIiIiIiIo0rfYYfuMbdZ5nZQuCCegXd/bvAdyt/m9kK4DDgxiEso4iI iIiIiIg0qHSH3937Gn3ydBnADsRlAB9r9PFDcGydkQS3AZe4u4/AcoiIiIiIiIhk1QVgZhsDnTXK PO7uKxt94jQS4BJgPHC6u/9yqAs5iM0Kt48ZpOwBZnbnMCzDBKDDzLqH4bnLGA90mlkjIzZaaRzQ Y2a5JoEcA4xOB5hyGA2MzRfPKGCCmTV8UK5FeoDJZrY2U343MAXwTOugC5gKkGkddALTIt7WZMjv SPkdZvZchnxSfqeZrc6Y321mqzLm95pZw/vqFuaPMbOxmfKnAKvMbEym/MnAc2Y2OlP+JKDPzHoz 5U8EMLOeTPmVNljONlC3mdVqRw+3scTnP2cbbEzmNtB4M8t1Qq8XmKg2mNpgGdtgU4Gl9QpVKseL gBk1ypwEXNtoursvJjohM4CLzAx3P6PR5ynhiZLlHgSWAMuHYRk6iRU+HM9dRgfxXubKN2BNxnwA z5jvxDrIld9H3vd/DbHDy5XfQ+zwlxPrYqR1EQd9lgO5djZjUn6unc3YlJ+rw/9s+snV4a7k5+pw j035KzLlj0n5ueqAUcS6z5XfC6zOmN9D1D258ittyVz5neknZxuoJ2M+5H3/K3K2gXK+/2uJTu+G 2gbrRm2w9aENVlcXgLu/bLiWwt0fMbPziQMHw9HhL27gRwFX1ij3pLsPy4aQjip3uHuWD1s6qtyV Mb8DWJsxH8Az5jtgGfP7yPv+rwF6M+Y/R9rZDOXSoxbkd5Eq++GqYwbJ7yR1uN19xHc26fP/bMrP 0uE3s0p+lg5/IT9Lh7+Qn6XDn87sL89YB4wGVmbMHwWszpjfS959cDdAxvwuoDNzG2hNxnwD+jK3 wXK+/33kff/XAt0bcBusm9ThVhssaxusrpYN/zGzRWa2Ubo9pzK0Ke2IjiSuoR9uT7v74zV+cg11 ERERERERERlxpTv8ZjbDzJYBlwIzzWyZmV1cKHImsHG6/XbgcTO7F3iEGOY5EpP2iYiIiIiIiAiN zdL/CDExSa37RxVuv9vM3k9M4vB4rmGeIiIiIiIiIhuqYZvRNF1LWXfGQBEREREREREZHrm+wkNE REREREREhpE6/CIiIiIiIiJtSB1+ERERERERkTakDr+IiIiIiIhIG1KHX0RERERERKQNqcMvIiIi IiIi0obU4RcRERERERFpQ+rwi4iIiIiIiLQhdfhFRERERERE2pA6/CIiIiIiIiJtSB1+ERERERER kTakDr+IiIiIiIhIG1KHX0RERERERKQNqcMvIiIiIiIi0obU4RcRERERERFpQ+rwi4iIiIiIiLQh dfhFRERERERE2pA6/CIiIiIiIiJtSB1+ERERERERkTakDr+IiIiIiIhIG1KHX0RERERERKQNle7w m1mHmW1tZoeZ2W4lH2ONlBcRERERERGR1mjkDP+ZwGLgHOBtJR/zZuCiBsqLiIiIiIiISAs00uE/ 3d1nAf9RprCZbQKcBpw/lAUTERERERERkaHrKlvQ3VeXLWtmBnwF+DCwAJjU+KINyWvMbG6N+25x 96tGaDlEREREREREsuoys05gdK0C7r5sCM97FPCsu19qZguGvHTlbFq4fWK9gma2L3DXMCzDBKAj rcscxhPvZa5JGMcBPXGcJ4sxwGgz80z5o4GxZtaXKX8UMMHM1mTK7wEmm9lzOfOBtZnegy5gCtBn Zmsz5HemfM+0DXSkfDJuA1Mi3kofmB6G/E4zW5Uxv9vMVmbMH2VmNdsSI5C/ysxGZcxfbWa9mfIr 9V93pvyJAGZW+iRSi00gPn+520C5GkFjgd7MbbAxmdtA4zPtfwF6gYkbcBusm6gD1QbL2wZbWq9Q F7ANcW1+LTMbSTWz6cDpwL6NPK4Jfy9Z7jHgL8BwNIh6iBWeq7HVTbyXufK7AM+Y30He9d9B3vVv wKqM+Z45v6+Qn2tnU8nPtbOp5Ofa2VTyczU4VhV+cubn+gysD/krN+D8lcDqzPlrM+ZXDnTkyu8h 6sGcbaC+jPmVk00520A5178R20CufNiw22BrURtsfWiD1dXl7nfTYKd+EPOBFwG3pqONE4mz35u6 +6tbmFNRHIHwFuDqGuX+2shlCY1IZ/Y7hjgaohX5HcR7mSvfgDUZ8x3wjPl9MOTRMK3IXwt0Zsx/ DujJmN9DNDiXufuI72zSWa3RKX/Edzap/hmT8kd8Z5Pqn7EpP0uH38yWp/wsHX4zG5fyszS4zKyy /ldkyh8DLHf35ZnyRwErM9ZBvcDqzHXg2oz5XZB1H9hJ3n2gAc9lzIe8779D9jZQzjb4GvK2wXO3 wbqJURZqg+Vtg9XVkuFXZjYL2N/dvwX8HJheuPsTRKf/Xa3IGsQj7v7ACOSIiIiIiIiIrNdKX+9k ZkeZ2VPA+4HjzewpM3tHunt74DMA7r7G3ZdVfohhbs+5+7OtXngRERERERERqa6RM/z/BfxwwP8q QzeuBGbVeNxHGl0oEREREREREWlOI1/L10eNyRgGuS/XrJkiIiIiIiIiG6xcX2EiIiIiIiIiIsNI HX4RERERERGRNqQOv4iIiIiIiEgbUodfREREREREpA2pwy8iIiIiIiLShtThFxEREREREWlD6vCL iIiIiIiItCF1+EVERERERETakDr8IiIiIiIiIm1IHX4RERERERGRNqQOv4iIiIiIiEgbUodfRERE REREpA2pw98ahwNHm5llyj8IOM7Mcr2f+wNvNbPuTPkLgBPNbFSm/PnA28xsbKb8XYGTzWxipvw5 wDvMbGqm/O2AU4CZmfK3TPmzMuVvlvJnZ8rfOOVvkyPczKal/B0z5U8GTgZ2zpQ/Dng7sGem/NHA ScBLMuX3ACcAL8+U3wkcBxyYKd+ANwKH5shPXpN+cjkUeGPGNtgriTZYZ6b8lwMnpM9CDi8BTkp1 QQ57Am9PdWEOuxBtsEmZ8ncETkn7why2IfbBG2fKn53yN8uUPyvlb5Epfybx/m9ft5S7/0P/AO8G PP2cnCF/20L+3hnyZwFrU/4rMuRPBlal/NdlyB8vlrzUAAAcnElEQVQDLEv5b82Q3wk8nvLfO9L5 aRkeTPkfy5R/R8r/TKb861P+eZnyf5HyL8yU//2Uf1mm/PNT/jWZ8s9O+bdnyj8j5d+fKX9Ryn8E 6MiQf1LKfxoYlSH/6JS/ApiQIf+glL8GmJkhf0GhDbJlhvxdCvnzMuRvWchfkCF/40Ib7KAM+RPS tu/A0RnyRwHPpPyTMuR3pLrPgUUjnZ+W4f6Uf0am/NtT/tmZ8q9J+ednyr8s5X8/U/6FKf/yTPnn pfxf1yvXDmf4i2cVcxzd2qRwe9MM+TPpH6mRI38qUDmqnCN/AlA5s54jv5v+bTDXGd7KNpjj9Rdz la/8nPm5Pn+V/E3qlho+lde9EXlG7VVe/3ggxxm2Sv4oYErG/E7yjDIqfu5ybIPFz12OOiB3G2wG edtgU4htP1f+OPo/9znyO4i6DzbcNljldefeB2/o+bnbIHVffzt0+EVERERERERkAHX4RURERERE RNqQOvwiIiIiIiIibUgdfhEREREREZE2pA6/iIiIiIiISBtSh19ERERERESkDXU1UtjMRgM7Ed91 +8s65aYBewz496/d/ZnGF1FEREREREREGlW6w29m2wO3AX8lvne03vft7gJ8B7iq8L8/AOrwi4iI iIiIiIyARs7w/y8wFdgcuLlE+bvc/bVDWioRERERERERaUrpDr+7rwIws7IPmWZmpwKPApe7+98b X7yGHWlm29S478/AA8OQuV3h9v5mNmkYMuqZXbi9r5k1dJlGC2xUuL2XmZ04wvkTC7d3z5DfXbg9 L0M+QOVDuX2m/N70e+tM+ZXRRptlyq985mdmyp+Rfk/JlL9p+j0+U/6W6XdvpvzKPqAzU/7cwu3j zaxvhPN3K9w+1syWjXD+/MLto8zsbyOcv6Bw+wgzG3g543Dbs3D7kDQacyTtVLj9SjObNcL5Wxdu v9zM6o0+HQ6bFW4vaKCN3CpTC7fnZ6iDiut7twz5xbnI5maqgzvT7+0yt8G2zJQ/Pv3eNFP+lPR7 Rqb8men3pEz5lTqo7rx85u4NPWvamdzs7jUrVTN7KXAasASYR1zP/1J3v7ehsHLL823gTa1+XhER EREREZH13Ap3H1PrTnN3zOwGomNezYnuftHzDyjR4V8nxOyrQI+7H1/2MQ0896uAS1v9vCIiIiIi IiLruT+4+5xad3YBuPvew7wQvwbeMhxP7O6Xmdk8YB+g3mUDfwGWD8cyAKOIIT3D9fyD6Uk/Iz2U sqIbGA08nSm/kxhWNhKXjVTTAUwAnsqYPxF4MlO+AZOBJzbQfIghZRt6/pNAY0PG2id/MvH5z5U/ iah/R3o4f8VEYv+zNmP+cmBNpvzxwCpgdab8scRrX5Upf3T6vSJTfi/Rns3ZBusl38TUXcQ2kKsN tKG3wYyog9UGy2d9aAPlzB8L3FCvQMuu9zazI4Hr3f1hM5sBPOrubma9wDHA71qVNZC7/x74/XA9 v4iIiIiIiMg/mroX+BeZWZeZPQD8ChhrZg+Y2U8KRc6jf/KgjwH3mtmVwH3EgYVPtmaRRURERERE RGQwpSfts5h6dOqAf69x96fS/VOBZ9x9dSq7OTGD+1LgIW90dkARERERERERGbKGZ+kXERERERER kfVf6SH9IiIiIiIiIvKPQx1+ERERERERkTakDr+IiIiIiIhIG1KHX0RERERERKQNqcMvIiIiIiIi 0obU4RcRERERERFpQ+rwi4iIiIiIiLQhdfhFRERERERE2lBX7gUYKjMbB7wG2AMY4+4n1Ck7F/jg gH9/yN3/3ET+dOAIYDfgKXcf+PzVHmPAmUBnmfKDPFcv8Dri9U8D3uzua2uU3ZZ4/VsDK4GfA+e4 +5oml+FwYD6wGfARd/9TjXKbAe9IZfsK+c+1MP9f3P3+OmVfT6yrTYDT3P2xJrM7gMpzzgROdfen 6pSfDXw8LetlwBfc3ZtchsnAJ4EdgRuAT7j7qhpl9wbeB0wCfkqs/2bzxwOfAHYGbgZOd/dna5Td C/hnYGPgHuBT9d6vkvldwIeBlwF/BD5W7X01s5nA56o8xcfd/b4m8kcR7+l84M6U/3Sd8q8Bjia2 wV+4++lDzU7PZ8C7gUOAvwKfdPd7a5T9EDCn8K/fuXu1ddJIfjex/velzvof8Jh5wP8BvuLuv24m Pz3fCUQ9+Dfg0+7++xrlTgFeBUwB7gfOdvfbWpB/MPA2ol77srtfUaPcEWk5NwceBD7bovyDgLcD Pkj+lsCrgZ2A29z9S0PImgWcAbwI+CXxGvpqlN0a+Bixrf84LVuz9c0Y4HSizr2dqPOfqVG29L6h gfxS27uZTST2dy8DRhN181nu/vcm80cB/wLsBfyeeF3r7HNSvfhZYB7QA9ya8h9uMr90fV94zAHA W1LZqnVTA/kdwGnAQcRn6Iw6bY5/AbYt/Osmd//XJvMbqu/M7FXAm4nP/A3u/r4m8w04EXgt8Bjx ntaq774JdA/49/nufmWT+e8EDgUeBs509yU1ym4MfJSob/5GfP5/OdTswvMW6/vPuPsdNcpNAj4C 7AksIba/vzaZ/TJgIdGOPtfdb6hTdjRRV+3JIHVVA/lziW1/DtF+uLBO2d2BA4EdgP9294ubyU7P uTXR1tgJuNndz61T9o3A4UT9fy+xrd7dZP4OxD58LrDY3b9Vp+xJxP5uGvAA8EV3/22T+bsA/0S0 t3/s7v9d4jEzibr4R2XKD/Jcs4DDgF2A+93903XKHk7UExWr3P2Ef+Qz/BsRK/854KhBys4Edgd+ UPhpaucLbAPsA/QSH4IyjgLe0ED5eiYSG/QK4BjA6pTtIhpo7wW+BryJaHQ36/XAKuLAy+Q65XYj GqRnpJ83EQ2XVuUfTjTk6zkaeIZYV2NbkN1N7HgqzzmqVsF0cOZq4BaiIXgErVn/lxCv/wRgK+Cr NfK3JQ4yfAs4hdgRfKQF+d8n1sMJRMVatQI2s2nE9ndzyv87cdChWZ8DXgycRDRAfpEaJQMt44Wf /fuAg4lOcjO+TnQoKgcbf1iroJm9izg48A2i0dRU4zd5H3Bser7rgKtTQ6Oa/YE/0b8Omu5sA58n 6tXK+r+8xvoHnu+IfI1oNG3RbHhq/P0zsR5+ClxlZrXqgaeBs4kOw93AlWY2tcn8lwDnA58Bvgh8 NzUKqjkYuBQ4FfhtWtZNmszfC7iAaFB8IeXvWqP4fKLxtxHw0iFkdQGLgbuAk4k65IwaZccQ9d11 xOt9M3FgqlnfAqYTn7duov6ppZF9Q1mfJxrwg9U3mwOzifdkEdFAv6AF+f9OfG5OINo9P6pRzoj6 5aNEp2M68F8tyP8+0d6pW98/vxDR6foc0UGc1oL8DxPv5zuA3wGLUye8mgOJTnmlvqvZOWtA2fcf MzuWeP8vTMt7Zwvyjyc+R+8l9udXpYP+1fyI/tf+K6KN0uz+7t3AW4F3EXXB1WZWqy11IVHXvCst yw9Th3HIzOzNwPuJOv8Sog6vtV19HxhHHGy6OS1rrW2lrMOIA3j7EAc96/km0e8oU1eVtZBob2xB tKnrOZD43O9AdJBbYT6wHTCDWAf1HERse6cS7a2r04HQZiwgXvvmxOewnmXEPvm9wB3AFc3ub4k2 1MbEgcSdSj7mS8S6Klu+np2Jzv6ktCz1zAXG018HxAEfd/+H/gG2B5YNUuYA4Lphyj8E+H2JctOJ I33HlinfQP5MojPd1cBjTgEuauEyPAXs0kD5Y4AbW5j/OLBHybIOzG5hdld6zpl1yrweuLXw90uA hwBrIndnouPck/7emGjgTqtS9oPAdwp/7wo8Sow0GWr+1kSlOjr9PYkYPbJJlbK7pLKd6e+pwGqg t4n8Mek5t01/dxANmn1LPPY84EtNvu8z0vqenv7uJTqVO1YpO544I7F9q7a79Lz/CxxY+PsG4I01 yl4BHNLC7DHAcmDrAet/nzqP+SBx0OM64NgWLMNtwOsLf/8MeHfJx/6pkTqrxnP8B3HmpvL3Z4kz P2UeewdweJP53yZG9RTzzxvkMYuGUvcTByz+UPh791TvrlOHAMcB1xf+/ifijEQzr3WTVL9MGrD9 bTXI40rvGwZ5nkrewPpmQYnH7sQgbZQSzzEt1Tcz0989RP2/U4nHbgE8SXP7m9L1feExXwfeSHSO 92ry9XcAjxTrF6I9dWSN8tcBBzT7vpd4/9fZ36T35iFg71blp+e9rfh6U313SonHvZMWtH+JAyiv LPx9LXBcjbIPF9cN8JviY4eYfxOF/RvwE2K05sBy04gRV2ML/7sFOKJF78N1wBvq3L9J+qxOqbbt tCD/i8DnSpb9T+CjLd4OPwj8Z4OPeQh4aYvyz6LB9hsxqvQlLcr/OjFiZLByryX20ReUKd9A/onA FYOU+Wi1beQf+Qx/o3Yws9+Y2U/N7LWDF2+5LxFH22sO+x5OZtZrZnub2VuJgw7n51iOZAExJHFD sSMxrLLiFmKnMKmJ55wD3OnuqwHcfSkxzG+rKmV7gOLlG2uIA1AbNZG/I3C3u69I+U8RQ6e2q1L2 DuKMzOlmtg/wf4F/9xqXH5Q0O+UuSb/7iPU6p85jSGck3kDz2/82wFJPQzrTa7mjRv5c4mDAfma2 2Mx+UOdMcCnpLOps1t2u6r3+M83sejM7twVHu2cD7mmYblr/t9bKT8PxXkfsrJuWzqxV+1zVfP1m tqWZ7W9mnybOOlQdDtqAOUQjvFR+YTlmAFsSZ8ubMZcXvv6by+QP0cDX+jvizHm1OmTgct0CbJG2 2aHaHngg1TN4DCW/i9gGRsLsiH1BfXNryfx9aH5/ty3wmKdh+anev5P62/suZnYo8P+Af/PUEhyi Rup7zOxA4mTEd5vILKpsa8Xt6ibqb++fTfXdOekz14zZVH//q+VvRZxd3s7MrjSzi9N+b8iGUt8V nECT+7s0SnFr4nNfJv9cYJGZLTCzU4k2yNVN5FvKGvj6q33+etLv4iWua2jdme7BbA/82d2fgOfr qj8wfHXzes3MtiI+v38c4dwXmdl+ZvZJ4gTXb0YwexrR3zttpDKreI2Z/dbMvmdme8J6eg1/ui6y 1lCl673x6/HuJ4b23Etc1/ZVMzN3rzrMzcyOYt3rnyp+4e6PNhJuZkcSZ+B/ZGaDDuc3s1cQZxCr ucnd72kkP5lEHPXZiDj6+j918l/MC69/K/qjuw/5g5MaIEcSZ31HPL8MM9uXGDZUzR1e47qxOqZS uITE3Vea2XNEp/vJKvnziQ5lNUs8rkWaxrqXpTydsga6jBh+uAdxPdsH0v+nAUur5O9ODAWr5n53 v75O/vSBD3D3PjM7CziHuK51KnFZR1XpEoQX17j7MXe/vEb+k9XyB3gtcJ+731qrQLpWrtb2+ZC7 X8WA9zSp+vqBWcRQvO2Jg20HEEPMtnf3x6vkbwLsVyP/WY9rwSpDGYvLUCsf4oDjQ8SZh/cBvzKz XaoddGli/VfNN7NO4qj4u9x9VZ1R/5Xy04mzwtWscfeLiFETlbOcxfx6HbCDiMugtieGo1ftAKWh n/UuE7vY3ZcR66B4XWa99V957l6iE/S1WvV4g/nF119m+x+qF7xWd19rZstS3sA6ZGC98nTh/w82 kV/28zYcGqlvn2cxZ8WniBESw5Ff7/WfTOxHNyLOCo5IvsW1/p8HXuXuPtjnvaSpwGp3XzlYfvJ5 YltbQwwD/4WZ7eFDnzeokfU/i7hscCHR7twT+JmZ7eQ15hwooVZ9V6udBEC6xGcbmh9SXtnOB+bP qlH+e8To108DmxIju1bWKFvG6PQzML/aUOmlxIGJD6eDuwcQI5JubCK/EUNtm7Qdi7nWvkeMRHtk hOMPIE4y7EDUwVXnmxkm/0rMU/W3FtV/jbqSGInyCNHuWWxmu66XHX5iyHGtiuSPRAe+tHSAoPKY u1KD+hhqX9e2F1G5VHMjcbSolNTA+1fglNTh2gYYnW7fUuOo+zxqV+QPEcNTGpI+bAenZTqNuN54 rxrFt6T2dZ7OEI+Umdl+xHDqg7z+BCrDkt+AHYhtsJqnaPzM4JPE2Q7g+W2imxjmXc3W1H79a4hr gJ8gGgFF46lyAMHdbzaztxONvl7i+rJ61/RtUSe/E7i+Tv46rymd7fkyMM/dnzazbYDbUof3L1Uy ZtbJvw+4vEb+xGr5AxxPXEdfz6w6+XcCVxHrudTrT2U7iYlClwMXmNk7icmfqk3kMrlO/lPpMZX3 eTyxLurl44VJe9K1738itvFqjaChrv9a+ScQncXVqd4bD2xpZpt59YlTx9fJXwVcRAwvXpPKPlZ4 XM33392/DHw5NUJ+R6zLatdBd9bJhxhKu4xYB8VrWOvmp+vgv0vsPz5Qq1yD+cX3oMz2P1RPEJcN Ac9PoDa2Rt7A5Rpf+H8z+WW3t+FQur6tSAfOfga8zd2b7Ww0/Prd/eS0HHOAm81sdhON7kbyP0Y0 Njcys42Ifd0OZnZ/oydLCp4EesyspzKqLeVX23/ghQmyzOwtRCdwDi88Q92IRl7/34jP8Efc/SHg QTN7G3EQ87wh5hfru2LdP9j2fwLwvXSAsBnFzBX18lP9ehNxudmNFpNNVuZQ+PYQ81cQdf94+g8m 1mrveDrJdlZajpuIa/6bncOgrKG2TdqKxXxClxDt1ZaM7GuEu38D+EYaWXYz8RmqOdFhq5jZ/sRo ki+m9s40ou2ztTc5cWlZ6aRcxV3pJOqR62WH393PHOaINdQZ3eDurRyG0U100N+T/p5ONKjPInYA 68ys7+6fb2F+Nb+hzlCTdAbtolYGprPm3wEOc/db6pUdjvxGuPvXWvyUS4hJVCrmEdeWVm0Au/t3 iHVVzz3AHDPrcvc1aQjRDGocDEujWf4Lnu+A31cnvzLRx2D521caYGknP5vqw7a2JS4/eDo9/x/N 7Cli4pt1Gmzufg1wzSD5fyIagLPd/YE05G9n4N9qPSAdaHgxMWliTe7+c+KbJOq5F9jUzCa7+5Pp rOwcqh+MW0IcXS4eYe4jGoXV8v+HODtXbxmfMbO/Emc4Fqd/z6Pc5GCe8qvWgQ2u/83d/cG0/ucR E+MNVMmq7PRnE2ewHyEm8RuYfz+Dv/4+M1tCvP7KNj+P6GjU5e7LzOwPxGU11e5fOVh+ck/KvLSQ X+usfRdxzX8f8Cav8Y0qDebfTbz+S9LfO9fKb4F7iEthKnYkDuJU60DeTYxkqZhHjIxpptOxhLgs YFx6/3qJ4eTD9XoHqlbfzCMO5q8jDWP9JbDI3WtO5tmAe4GZZjY1nTXqIt6DMq//D8ScKdOo/n6V 0Uh9v5yYVKzyeR9PzBv0OHHd9VD8jejc7UQ03iG291+VeGwf0c5qpr3byPt/HzGp4sD6fsin+gbU d5VRMvPor/vXkTpcxxAzmzfF3VeY2YNER6Yy0/88qrfTZhAnzH6bHrvSzG6i9qjFMvluZvcQr7/y zQDz6N8WBpZ/gFRfpc/KH6nxWR0GS4AXmdmEdIKjlziJNFJ1VXbpIM9/E5+FU5u8nKgp7v6smd1J 4YD1MOslTkJUZtGfQ9TVD9OaycqHIvq83sLJHEbyh6g8FxITBK1It3cv3P99YNd0+zDijMmmwCuJ I4RvaTJ/dMr8EDF51kJgTuG+n1N9ArNSk/yVXIaXEsPjnZi1cX7hvm+SJhRKmQuJYcW7EzvJpiYt S8+7W3reZcREEguBjnTfx0kTc6XMZ4iZ4Remn6Ym8UnPu2t6rr8TX021kP6J4T5KYWIwoqO3MK2r N1BicrcS+fPTevf0Piwo3Hc2cHC6PYZoaB1FDI27lPhKm2a3/9uImYsnAV8BflC4/+OkCW6ICYaO IM5c70/s/F7Xgtd/LfE1TRPT6/1Z4b4PAccXtpOn0/ofR5xlfwKY0GT+14kDI5OJ2WCXFN7/Yxkw WQ0xd8B3m33dhee7mDjAMImoyG8kTYxFTJR0WqHsj1P+hLStPE6a8K+J/I8Tja/KV4Q+BoxP972S uG4XosH9dqKDNJsY3n8/8XWmzeR/k+jEVtb/PfR//t88cP0XHteqSfveQ5y9mQm8Im1TM9J9+wDf TLd7iNmidyAOMh1HdB6amkSJGDL457Re5xL7lb3TfZsR+4DKpJrnp8/dgfTXgTUnPCuZ/3LigNn2 RKNiKWlSM+JgRjF/Wsr8StpmFtLA5KVpHf4lva9TiJERXyjcfy7winR7QtoWj0jb5lW1toUGX+/P iKHaE4l659rCfacB7yz8XXPf0OT2/p8MUt8QDcsHifppYeGn2fwfpfdvElHv30x/fXMyqb5J28Lr iJFy2xHfIrGEBib2rZF/LfE1sHXr+yqPa3rSvvQ8ZxH7zqnEZIBLgVHpvkOJr9qsbOsnEAeatyDO qt9NE5PENvL+p78vSJ+JSfTXTS9qMv89xD5mBlGPPAFslO5bQKrvCuXfSMxzMeTJGgc830eIAwzT 0/p+HJiY7nsFacJS4kD2g8QopgnE12g+QpOTKBL71FvS52t/og7fJN03H/hWoey+6f3fgRjR9/Nm 1wNRzy4kRvl9It0el+47nhjBVyn7U2JE5aRUthWTJm6aMn9ADJNfCGxc7f0n9nMLiYOO30i3m21v VPYh56XnXUjah6T1fHGh7CVE+3Q/+uu/ZvNnpue5kKgLFwKz0n17UJhIkJidf05aD0enbWVuk/mb p8xLic/3Qvo/f89v/1UedwEtmLSPqHcXEpPz3pJub5Puq+zvK5OqnkjsAzdNt5cD89bLM/wldRAz DkN0YBcRR8ErZ4/X0H+N5vh0/wxiWM+HGOQrZUqYXMj/n3T71/RfG1/rO+4fZfCzZ2W9ixhWeSnR 4FlK/3D34us3orLenKikL6P6mbhGHUM0KBYTX5cDMdx7NXFEvXKEe2Niwpa90w/Eemh2mOPRxJGz a4lrc19NvP4VA/IhKuRZxLo6ljgC3+z7cCLx2i5Nz78yLQsp3+H5I4z7EUf8Pkg0XE9vJtjdPc11 cTbxOm4gvjKnovj6jXjNZxEHpxa5+4+byU+OJBrg1xKNz6ML9z1/RtvdbzWz44hO8cb0z/Zb8zvr SzqVaMwuTs/5Cu8/c1o5q1M0lejstspx9K//O4BDPdW2VfKPJSbPuo7oJP6TD/Kd9SWcSTSuLic+ +wd4/3f9eiG/j9g5vDP9fWsqW/c7tEs4hXhNi0mdWe//XvZq67/ieuLSpGadQ3wd5k+Jeu1g7x+y 7PTXwX1Eh/ytqfw9xDcWVP0O6bLc/Qoz+xDRoOoj5igofv1XcR/QmXKLX093Lk0MM3X3q8zsA0TH spJfHMpXzN+G/v3Vs+n2hcTEa2WyVqehip8h9jW/5IVf7Vms755O89B8ihjefQn9ZzuacTT99c3t RP1TzO8bULbWvmGoBm7vteqbaUR9MJP+dU4L8o8jvubuGmISwENq1DeriA7/6en2LWlZa7VJyipV 31dxBa2ZrPijxAGHK4g6dH/vv6a/+PrXEqMn35v+fzNRNzUzSSyUf/8hvorv00S752FiZONQr9+v OIc4eXAZ0X462PsvkSjWdxWzieuIW3V29SxixGplf3Ogu1euVX9+f+Mxv8crie3vRqJu/oC7X9Fk /rnECYOfpOc8xPsvDS3u7yDqu3PS/64gDgY2ux4Oov/rbXdLP+8mTngN3P6PIT4r1xB1Vd1RhSXt ygtHfi0iTjgsZd33f2+izbGK6PcsIt6/ZtocxX3IKl64DxmYv5bYx7+v8L9m8+cSn+mKRcRXlf6F dd//7YjXP4b4rB7u7s1OnDqfOODtRB2/iKgPHq2SX3Q7Qx9ZVTSL/vW/NN2+lP5RVsX1vwWxrYwj +sUHufud/x/ZinxPD1dCcgAAAABJRU5ErkJggg== "
   id="image128867"
   x="-70.792786"
   y="23.934673" /><text
   xml:space="preserve"
   style="font-size:13.5938px;line-height:1.25;font-family:sans-serif;text-align:center;text-anchor:middle;stroke-width:1.01954"
   x="80.603104"
   y="430.24805"
   id="text207223"
   transform="scale(1.0050088,0.99501616)"><tspan
     sodipodi:role="line"
     x="80.603104"
     y="430.24805"
     id="tspan207221"
     style="font-size:13.5938px;stroke-width:1.01954">LPA</tspan></text><text
   xml:space="preserve"
   style="font-size:17.7337px;line-height:1.25;font-family:sans-serif;stroke-width:1.10836"
   x="306.5462"
   y="793.60455"
   id="text207429"><tspan
     sodipodi:role="line"
     id="tspan207427"
     x="306.5462"
     y="793.60455"
     style="stroke-width:1.10836">X axis</tspan></text><text
   xml:space="preserve"
   style="font-size:17.7337px;line-height:1.25;font-family:sans-serif;stroke-width:1.10836"
   x="-413.12125"
   y="-76.047546"
   id="text207529"
   transform="rotate(-90)"><tspan
     sodipodi:role="line"
     id="tspan207527"
     x="-413.12125"
     y="-76.047546"
     style="stroke-width:1.10836">Z axis</tspan></text><text
   xml:space="preserve"
   style="font-size:10.8751px;line-height:1.25;font-family:sans-serif;text-align:center;text-anchor:middle;stroke-width:1.01954"
   x="327.89594"
   y="145.06618"
   id="text206468-7"
   transform="scale(1.0050088,0.99501616)"><tspan
     sodipodi:role="line"
     x="327.89594"
     y="145.06618"
     id="tspan206470-3"
     style="font-size:10.8751px;stroke-width:1.01954">Cz</tspan></text><path
   style="fill:none;stroke:#000000;stroke-width:0.55115;stroke-linecap:butt;stroke-linejoin:miter;stroke-dasharray:none;stroke-opacity:1"
   d="m 570.8703,375.4918 c 0.2024,-0.095 0.1694,-0.1395 0.2525,-0.3243 3.2661,-7.2634 6.8517,-15.3128 12.3482,-18.413 3.6206,-1.261 5.9199,-1.1745 9.8308,0.6343 3.6299,2.4608 4.8277,6.9617 5.1661,15.1926 1.3381,22.218 -6.8548,47.47 -12.4812,69.8217 -8.8522,30.6784 -13.3391,39.7223 -23.0261,70.5734 -2.704,7.1028 -4.4182,9.649 -10.7996,8.5401 -2.8601,-0.353 -4.9937,-1.7632 -7.7135,-11.3699 -2.8071,-7.2999 -2.473,-13.9052 -2.4029,-20.5735 0,-0.1459 0.027,-0.2238 -0.052,-0.4077"
   id="path150556"
   sodipodi:nodetypes="cscccccccsc" /><path
   style="fill:none;stroke:#000000;stroke-width:0.479703;stroke-linecap:butt;stroke-linejoin:miter;stroke-dasharray:none;stroke-opacity:1"
   d="m 329.8751,277.6759 -0.2878,-87.8247 c -5.5722,-17.6542 -19.5968,-20.9195 -32.7681,-20.9485 -23.2432,1.8087 -46.9626,2.4495 -75.381,20.0531 -14.53272,9.6558 -27.9542,20.6204 -41.26589,32.2498 -15.00826,14.9426 -29.65518,29.7915 -40.84535,46.7456 -8.86915,12.0474 -16.31298,25.8824 -21.55642,41.0678 -3.29264,7.8029 -1.81385,20.849 1.40307,22.9232 l 5.61515,4.1571 c -10.41776,1.6606 -15.60098,8.8341 -17.86355,19.0836 l 0.98405,80.271 c 3.08162,13.8632 10.35464,22.624 23.38283,24.3785 0,0 83.82859,1.7231 86.3386,1.0496 0.6996,-0.1877 2.867,-0.9486 5.61814,-3.4933 3.02799,-2.8007 6.82753,-7.4921 11.64144,-9.7232 5.73703,-2.6588 13.44143,-0.1987 18.58263,-3.6049 8.3235,-5.5144 10.9059,-13.8797 13.73,-13.17"
   id="path150537"
   sodipodi:nodetypes="ccccccccccccssssc" /><path
   style="fill:none;stroke:#000000;stroke-width:0.479703;stroke-linecap:butt;stroke-linejoin:miter;stroke-dasharray:none;stroke-opacity:1"
   d="m 219.8197,364.6832 c -3.53909,-3.0426 -4.44235,-6.9393 -1.06994,-9.6705 0,0 4.93853,-2.1983 5.89754,-6.0867 1.62808,-6.6012 -3.5665,-12.8326 -11.72908,-13.7582 l -87.86713,0.8351"
   id="path150539"
   sodipodi:nodetypes="ccscc" /><path
   style="fill:none;stroke:#000000;stroke-width:0.479703;stroke-linecap:butt;stroke-linejoin:miter;stroke-dasharray:none;stroke-opacity:1"
   d="m 329.6351,277.6759 0.2878,-87.8247 c 5.5722,-17.6542 19.5968,-20.9195 32.7681,-20.9485 23.2432,1.8087 46.9626,2.4495 75.381,20.0531 14.5328,9.6558 27.9542,20.6204 41.2659,32.2498 15.0082,14.9426 29.6551,29.7915 40.8453,46.7456 8.8692,12.0474 16.313,25.8824 21.5564,41.0678 3.2927,7.8029 1.8139,20.849 -1.403,22.9232 l -5.6151,4.1571 c 10.4177,1.6606 15.6009,8.8341 17.8635,19.0836 l -0.9841,80.271 c -3.0816,13.8632 -10.3546,22.624 -23.3828,24.3785 0,0 -83.8286,1.7231 -86.3386,1.0496 -0.6996,-0.1877 -2.867,-0.9486 -5.6181,-3.4933 -3.028,-2.8007 -6.8276,-7.4921 -11.6415,-9.7232 -5.737,-2.6588 -13.4414,-0.1987 -18.5826,-3.6049 -8.3235,-5.5144 -10.9059,-13.8797 -13.7299,-13.17"
   id="path150558"
   sodipodi:nodetypes="ccccccccccccssssc" /><path
   style="fill:none;stroke:#000000;stroke-width:0.479703;stroke-linecap:butt;stroke-linejoin:miter;stroke-dasharray:none;stroke-opacity:1"
   d="m 441.0115,364.6832 c 3.5391,-3.0426 4.4423,-6.9393 1.0699,-9.6705 0,0 -4.9385,-2.1983 -5.8975,-6.0867 -1.6281,-6.6012 3.5665,-12.8326 11.729,-13.7582 l 87.8672,0.8351"
   id="path150560"
   sodipodi:nodetypes="ccscc" /><path
   id="path150554"
   style="fill:none;stroke:#000000;stroke-width:0.479703;stroke-miterlimit:0;stroke-dasharray:none"
   d="m 520.6242,620.8429 c 1.7194,-42.3584 5.7054,-78.7373 9.1881,-91.182 6.2846,-26.2546 16.3147,-54.3685 27.44,-76.702 7.7185,-12.9554 8.716,-27.7017 10.878,-42.1376 0.9733,-5.9224 2.8167,-15.9998 2.8247,-27.5981"
   sodipodi:nodetypes="ccccc" /><path
   id="path204909"
   style="fill:none;stroke:#000000;stroke-width:0.476828;stroke-miterlimit:0;stroke-dasharray:none"
   d="m 87.99566,383.2306 c 0,-62.3038 25.44157,-122.0557 70.72788,-166.1112 45.28629,-44.0554 106.70766,-68.8055 170.75216,-68.8055 64.0445,0 125.4659,24.7501 170.7522,68.8055 45.2864,44.0555 70.7279,103.8074 70.7279,166.1112"
   sodipodi:nodetypes="csssc" /><path
   style="fill:none;stroke:#000000;stroke-width:0.55115;stroke-linecap:butt;stroke-linejoin:miter;stroke-dasharray:none;stroke-opacity:1"
   d="m 88.08259,375.4918 c -0.20239,-0.095 -0.16934,-0.1395 -0.25245,-0.3243 -3.2661,-7.2634 -6.85174,-15.3128 -12.34818,-18.413 -3.62067,-1.261 -5.91988,-1.1745 -9.83079,0.6343 -3.62997,2.4608 -4.82776,6.9617 -5.16612,15.1926 -1.33811,22.218 6.85476,47.47 12.48118,69.8217 8.85221,30.6784 13.33907,39.7223 23.02613,70.5734 2.70391,7.1028 4.41822,9.649 10.79952,8.5401 2.86017,-0.353 4.99379,-1.7632 7.71354,-11.3699 2.80715,-7.2999 2.47298,-13.9052 2.40291,-20.5735 -0.001,-0.1459 -0.0272,-0.2238 0.0521,-0.4077"
   id="path208072"
   sodipodi:nodetypes="cscccccccsc" /><path
   id="path208074"
   style="fill:none;stroke:#000000;stroke-width:0.479703;stroke-miterlimit:0;stroke-dasharray:none"
   d="m 138.32868,620.8429 c -1.7194,-42.3584 -5.70534,-78.7373 -9.18812,-91.182 -6.28453,-26.2546 -16.3147,-54.3685 -27.43994,-76.702 -7.71848,-12.9554 -8.71598,-27.7017 -10.87798,-42.1376 -0.97333,-5.9224 -2.81678,-15.9998 -2.8247,-27.5981"
   sodipodi:nodetypes="ccccc" /><rect
   style="fill:#ff0000;fill-opacity:1;stroke:none;stroke-width:0.229858;stroke-miterlimit:0;stroke-dasharray:none;stroke-opacity:1"
   id="rect185479"
   width="1.0075133"
   height="241.80319"
   x="-330.16156"
   y="148.13725"
   transform="scale(-1,1)" /><rect
   style="fill:#ff0000;fill-opacity:1;stroke:none;stroke-width:0.323735;stroke-miterlimit:0;stroke-dasharray:none;stroke-opacity:1"
   id="rect177294-3"
   width="1"
   height="482.67148"
   x="-390.09915"
   y="-570.97296"
   transform="matrix(0,-1,-1,0,0,0)" /><text
   xml:space="preserve"
   style="font-size:10.8751px;line-height:1.25;font-family:sans-serif;text-align:center;text-anchor:middle;stroke-width:1.01954"
   x="327.30011"
   y="395.28076"
   id="text210062"
   transform="scale(1.0050088,0.99501616)"><tspan
     sodipodi:role="line"
     x="327.30011"
     y="395.28076"
     style="font-size:10.8751px;stroke-width:1.01954"
     id="tspan210070">Fpz/Oz</tspan></text></svg>
